(module Converter_ACDC_Vigortronix_Low_Profile_VTX-214-002-1xx_THT (layer F.Cu) (tedit 5C4F08F3)
  (descr "Vigortronix VTX-214-002-xxx serie of ACDC converter, http://www.vigortronix.com/2WLowProfileAC-DCConverters")
  (tags "Vigortronix VTX-214-002-xxx serie of ACDC converter")
  (fp_text reference REF** (at -1.91 -9.2) (layer F.SilkS)
    (effects (font (size 1 1) (thickness 0.15)))
  )
  (fp_text value Converter_ACDC_Vigortronix_Low_Profile_VTX-214-002-1xx_THT (at 8.89 22.86) (layer F.Fab)
    (effects (font (size 1 1) (thickness 0.15)))
  )
  (fp_line (start -3 -8.26) (end 3 -8.26) (layer F.Fab) (width 0.12))
  (fp_line (start -3.38 20.49) (end -3.38 -8.01) (layer F.CrtYd) (width 0.05))
  (fp_line (start 20.62 20.49) (end -3.38 20.49) (layer F.CrtYd) (width 0.05))
  (fp_line (start 20.62 -8.01) (end 20.62 20.49) (layer F.CrtYd) (width 0.05))
  (fp_line (start -3.38 -8.01) (end 20.62 -8.01) (layer F.CrtYd) (width 0.05))
  (fp_line (start -3.25 20.36) (end -3.25 -7.88) (layer F.SilkS) (width 0.12))
  (fp_line (start 20.49 20.36) (end -3.25 20.36) (layer F.SilkS) (width 0.12))
  (fp_line (start 20.49 -7.88) (end 20.49 20.36) (layer F.SilkS) (width 0.12))
  (fp_line (start -3.25 -7.88) (end 20.49 -7.88) (layer F.SilkS) (width 0.12))
  (fp_line (start -3.13 20.24) (end -3.13 -7.76) (layer F.Fab) (width 0.1))
  (fp_line (start 20.37 20.24) (end -3.13 20.24) (layer F.Fab) (width 0.1))
  (fp_line (start 20.37 -7.76) (end 20.37 20.24) (layer F.Fab) (width 0.1))
  (fp_line (start 1 -7.76) (end 20.37 -7.76) (layer F.Fab) (width 0.1))
  (fp_line (start 0 -6.76) (end 1 -7.76) (layer F.Fab) (width 0.1))
  (fp_line (start -1 -7.76) (end 0 -6.76) (layer F.Fab) (width 0.1))
  (fp_line (start -3.13 -7.76) (end -1 -7.76) (layer F.Fab) (width 0.1))
  (pad 4 thru_hole circle (at 17.5 -1.5) (size 3 3) (drill 1.5) (layers *.Cu *.Mask))
  (pad 3 thru_hole circle (at 17.5 17.5) (size 3 3) (drill 1.5) (layers *.Cu *.Mask))
  (pad 2 thru_hole circle (at 0 17.5) (size 3 3) (drill 1.5) (layers *.Cu *.Mask))
  (pad 1 thru_hole rect (at 0 0) (size 3 3) (drill 1.5) (layers *.Cu *.Mask))
)
