(export (version D)
  (design
    (source ${KIPRJMOD}/heating_control.sch)
    (date "ven. 23 août 2019 12:35:05 CEST")
    (tool "Eeschema 5.0.2+dfsg1-1~bpo9+1")
    (sheet (number 1) (name /) (tstamps /)
      (title_block
        (title)
        (company)
        (rev)
        (date)
        (source heating_control.sch)
        (comment (number 1) (value ""))
        (comment (number 2) (value ""))
        (comment (number 3) (value ""))
        (comment (number 4) (value "")))))
  (components
    (comp (ref F1)
      (value Fuse)
      (footprint Fuse:Fuseholder_Cylinder-5x20mm_Schurter_0031_8201_Horizontal_Open)
      (datasheet ~)
      (libsource (lib Device) (part Fuse) (description Fuse))
      (sheetpath (names /) (tstamps /))
      (tstamp 5C48566F))
    (comp (ref 14D431)
      (value Varistor)
      (footprint Varistor:RV_Disc_D15.5mm_W4.2mm_P7.5mm)
      (datasheet ~)
      (libsource (lib Device) (part Varistor) (description "Voltage dependent resistor"))
      (sheetpath (names /) (tstamps /))
      (tstamp 5C485739))
    (comp (ref B32922C3104K189)
      (value C)
      (footprint Capacitor_THT:C_Rect_L18.0mm_W5.0mm_P15.00mm_FKS3_FKP3)
      (datasheet ~)
      (libsource (lib Device) (part C) (description "Unpolarized capacitor"))
      (sheetpath (names /) (tstamps /))
      (tstamp 5C4857ED))
    (comp (ref C1)
      (value 47µF)
      (footprint Capacitor_THT:CP_Radial_D6.3mm_P2.50mm)
      (datasheet ~)
      (libsource (lib Device) (part CP) (description "Polarized capacitor"))
      (sheetpath (names /) (tstamps /))
      (tstamp 5C485FAB))
    (comp (ref D11)
      (value D)
      (footprint Diode_THT:D_DO-41_SOD81_P10.16mm_Horizontal)
      (datasheet ~)
      (libsource (lib Device) (part D) (description Diode))
      (sheetpath (names /) (tstamps /))
      (tstamp 5C4869B6))
    (comp (ref D12)
      (value D)
      (footprint Diode_THT:D_DO-41_SOD81_P10.16mm_Horizontal)
      (datasheet ~)
      (libsource (lib Device) (part D) (description Diode))
      (sheetpath (names /) (tstamps /))
      (tstamp 5C486A91))
    (comp (ref D13)
      (value D)
      (footprint Diode_THT:D_DO-41_SOD81_P10.16mm_Horizontal)
      (datasheet ~)
      (libsource (lib Device) (part D) (description Diode))
      (sheetpath (names /) (tstamps /))
      (tstamp 5C486AAA))
    (comp (ref D14)
      (value D)
      (footprint Diode_THT:D_DO-41_SOD81_P10.16mm_Horizontal)
      (datasheet ~)
      (libsource (lib Device) (part D) (description Diode))
      (sheetpath (names /) (tstamps /))
      (tstamp 5C486AC3))
    (comp (ref U14)
      (value MOC3043M)
      (footprint Package_DIP:DIP-6_W7.62mm)
      (datasheet http://www.fairchildsemi.com/ds/MO/MOC3031M.pdf)
      (libsource (lib Relay_SolidState) (part MOC3043M) (description "Zero Cross Opto-Triac, Vdrm 400V, Ift 5mA, DIP6"))
      (sheetpath (names /) (tstamps /))
      (tstamp 5C489E04))
    (comp (ref U13)
      (value MOC3043M)
      (footprint Package_DIP:DIP-6_W7.62mm)
      (datasheet http://www.fairchildsemi.com/ds/MO/MOC3031M.pdf)
      (libsource (lib Relay_SolidState) (part MOC3043M) (description "Zero Cross Opto-Triac, Vdrm 400V, Ift 5mA, DIP6"))
      (sheetpath (names /) (tstamps /))
      (tstamp 5C48AF61))
    (comp (ref U12)
      (value MOC3043M)
      (footprint Package_DIP:DIP-6_W7.62mm)
      (datasheet http://www.fairchildsemi.com/ds/MO/MOC3031M.pdf)
      (libsource (lib Relay_SolidState) (part MOC3043M) (description "Zero Cross Opto-Triac, Vdrm 400V, Ift 5mA, DIP6"))
      (sheetpath (names /) (tstamps /))
      (tstamp 5C48FEC8))
    (comp (ref U11)
      (value MOC3043M)
      (footprint Package_DIP:DIP-6_W7.62mm)
      (datasheet http://www.fairchildsemi.com/ds/MO/MOC3031M.pdf)
      (libsource (lib Relay_SolidState) (part MOC3043M) (description "Zero Cross Opto-Triac, Vdrm 400V, Ift 5mA, DIP6"))
      (sheetpath (names /) (tstamps /))
      (tstamp 5C491810))
    (comp (ref U2)
      (value ESP-12F)
      (footprint RF_Module:ESP-12E)
      (datasheet http://wiki.ai-thinker.com/_media/esp8266/esp8266_series_modules_user_manual_v1.1.pdf)
      (libsource (lib RF_Module) (part ESP-12F) (description "802.11 b/g/n Wi-Fi Module"))
      (sheetpath (names /) (tstamps /))
      (tstamp 5C494524))
    (comp (ref R1)
      (value 10K)
      (footprint Resistor_THT:R_Axial_DIN0207_L6.3mm_D2.5mm_P10.16mm_Horizontal)
      (datasheet ~)
      (libsource (lib Device) (part R) (description Resistor))
      (sheetpath (names /) (tstamps /))
      (tstamp 5C49685A))
    (comp (ref R14)
      (value 330)
      (footprint Resistor_THT:R_Axial_DIN0207_L6.3mm_D2.5mm_P10.16mm_Horizontal)
      (datasheet ~)
      (libsource (lib Device) (part R) (description Resistor))
      (sheetpath (names /) (tstamps /))
      (tstamp 5C49ED32))
    (comp (ref R13)
      (value 330)
      (footprint Resistor_THT:R_Axial_DIN0207_L6.3mm_D2.5mm_P10.16mm_Horizontal)
      (datasheet ~)
      (libsource (lib Device) (part R) (description Resistor))
      (sheetpath (names /) (tstamps /))
      (tstamp 5C49ED7A))
    (comp (ref R12)
      (value 330)
      (footprint Resistor_THT:R_Axial_DIN0207_L6.3mm_D2.5mm_P10.16mm_Horizontal)
      (datasheet ~)
      (libsource (lib Device) (part R) (description Resistor))
      (sheetpath (names /) (tstamps /))
      (tstamp 5C49EDC6))
    (comp (ref R11)
      (value 330)
      (footprint Resistor_THT:R_Axial_DIN0207_L6.3mm_D2.5mm_P10.16mm_Horizontal)
      (datasheet ~)
      (libsource (lib Device) (part R) (description Resistor))
      (sheetpath (names /) (tstamps /))
      (tstamp 5C49EE16))
    (comp (ref R2)
      (value 10K)
      (footprint Resistor_THT:R_Axial_DIN0207_L6.3mm_D2.5mm_P10.16mm_Horizontal)
      (datasheet ~)
      (libsource (lib Device) (part R) (description Resistor))
      (sheetpath (names /) (tstamps /))
      (tstamp 5C4BB501))
    (comp (ref JP1)
      (value Jumper_NO_Small)
      (footprint Connector_PinHeader_2.54mm:PinHeader_1x02_P2.54mm_Vertical)
      (datasheet ~)
      (libsource (lib Device) (part Jumper_NO_Small) (description "Jumper, normally open, small symbol"))
      (sheetpath (names /) (tstamps /))
      (tstamp 5C4BFD5B))
    (comp (ref R3)
      (value 10K)
      (footprint Resistor_THT:R_Axial_DIN0207_L6.3mm_D2.5mm_P10.16mm_Horizontal)
      (datasheet ~)
      (libsource (lib Device) (part R) (description Resistor))
      (sheetpath (names /) (tstamps /))
      (tstamp 5C4F0EED))
    (comp (ref R4)
      (value 10K)
      (footprint Resistor_THT:R_Axial_DIN0207_L6.3mm_D2.5mm_P10.16mm_Horizontal)
      (datasheet ~)
      (libsource (lib Device) (part R) (description Resistor))
      (sheetpath (names /) (tstamps /))
      (tstamp 5C4F78AC))
    (comp (ref R5)
      (value 10K)
      (footprint Resistor_THT:R_Axial_DIN0207_L6.3mm_D2.5mm_P10.16mm_Horizontal)
      (datasheet ~)
      (libsource (lib Device) (part R) (description Resistor))
      (sheetpath (names /) (tstamps /))
      (tstamp 5C48BDB5))
    (comp (ref SW1)
      (value SW_Push)
      (footprint Button_Switch_SMD:SW_SPST_TL3305A)
      (libsource (lib Switch) (part SW_Push) (description "Push button switch, generic, two pins"))
      (sheetpath (names /) (tstamps /))
      (tstamp 5C492B38))
    (comp (ref C3)
      (value 100n)
      (footprint Capacitor_THT:C_Disc_D3.0mm_W2.0mm_P2.50mm)
      (datasheet ~)
      (libsource (lib Device) (part C) (description "Unpolarized capacitor"))
      (sheetpath (names /) (tstamps /))
      (tstamp 5C492C6E))
    (comp (ref JP2)
      (value Jumper_NO_Small)
      (footprint Connector_PinHeader_2.54mm:PinHeader_1x02_P2.54mm_Vertical)
      (datasheet ~)
      (libsource (lib Device) (part Jumper_NO_Small) (description "Jumper, normally open, small symbol"))
      (sheetpath (names /) (tstamps /))
      (tstamp 5C4ACA98))
    (comp (ref PS1)
      (value VTX-214-002-103)
      (footprint Converter_ACDC:Converter_ACDC_Vigortronix_Low_Profile_VTX-214-002-1xx_THT)
      (datasheet http://www.vigortronix.com/2WLowProfileAC-DCConverters)
      (libsource (lib vtx-214-002-103) (part VTX-214-002-103) (description "3V Vigortronix 2W Low Profile ACDC Converters"))
      (sheetpath (names /) (tstamps /))
      (tstamp 5C4F83D7))
    (comp (ref J2)
      (value Conn_01x01_Male)
      (footprint Connector_PinHeader_2.54mm:PinHeader_1x01_P2.54mm_Vertical)
      (datasheet ~)
      (libsource (lib Connector) (part Conn_01x01_Male) (description "Generic connector, single row, 01x01, script generated (kicad-library-utils/schlib/autogen/connector/)"))
      (sheetpath (names /) (tstamps /))
      (tstamp 5C54EBB1))
    (comp (ref J3)
      (value Conn_01x01_Male)
      (footprint Connector_PinHeader_2.54mm:PinHeader_1x01_P2.54mm_Vertical)
      (datasheet ~)
      (libsource (lib Connector) (part Conn_01x01_Male) (description "Generic connector, single row, 01x01, script generated (kicad-library-utils/schlib/autogen/connector/)"))
      (sheetpath (names /) (tstamps /))
      (tstamp 5C55516F))
    (comp (ref J4)
      (value Conn_01x02_Male)
      (footprint Connector_PinHeader_2.54mm:PinHeader_1x02_P2.54mm_Vertical)
      (datasheet ~)
      (libsource (lib Connector) (part Conn_01x02_Male) (description "Generic connector, single row, 01x02, script generated (kicad-library-utils/schlib/autogen/connector/)"))
      (sheetpath (names /) (tstamps /))
      (tstamp 5C555245))
    (comp (ref J1)
      (value Screw_Terminal_01x06)
      (footprint TerminalBlock_Phoenix:TerminalBlock_Phoenix_MKDS-1,5-6-5.08_1x06_P5.08mm_Horizontal)
      (datasheet ~)
      (libsource (lib Connector) (part Screw_Terminal_01x06) (description "Generic screw terminal, single row, 01x06, script generated (kicad-library-utils/schlib/autogen/connector/)"))
      (sheetpath (names /) (tstamps /))
      (tstamp 5D154ECA))
    (comp (ref C4)
      (value 100n)
      (footprint Capacitor_THT:C_Disc_D3.0mm_W2.0mm_P2.50mm)
      (datasheet ~)
      (libsource (lib Device) (part C) (description "Unpolarized capacitor"))
      (sheetpath (names /) (tstamps /))
      (tstamp 5D405135)))
  (libparts
    (libpart (lib Connector) (part Conn_01x01_Male)
      (description "Generic connector, single row, 01x01, script generated (kicad-library-utils/schlib/autogen/connector/)")
      (docs ~)
      (footprints
        (fp Connector*:*))
      (fields
        (field (name Reference) J)
        (field (name Value) Conn_01x01_Male))
      (pins
        (pin (num 1) (name Pin_1) (type passive))))
    (libpart (lib Connector) (part Conn_01x02_Male)
      (description "Generic connector, single row, 01x02, script generated (kicad-library-utils/schlib/autogen/connector/)")
      (docs ~)
      (footprints
        (fp Connector*:*_1x??_*))
      (fields
        (field (name Reference) J)
        (field (name Value) Conn_01x02_Male))
      (pins
        (pin (num 1) (name Pin_1) (type passive))
        (pin (num 2) (name Pin_2) (type passive))))
    (libpart (lib Connector) (part Screw_Terminal_01x06)
      (description "Generic screw terminal, single row, 01x06, script generated (kicad-library-utils/schlib/autogen/connector/)")
      (docs ~)
      (footprints
        (fp TerminalBlock*:*))
      (fields
        (field (name Reference) J)
        (field (name Value) Screw_Terminal_01x06))
      (pins
        (pin (num 1) (name Pin_1) (type passive))
        (pin (num 2) (name Pin_2) (type passive))
        (pin (num 3) (name Pin_3) (type passive))
        (pin (num 4) (name Pin_4) (type passive))
        (pin (num 5) (name Pin_5) (type passive))
        (pin (num 6) (name Pin_6) (type passive))))
    (libpart (lib Device) (part C)
      (description "Unpolarized capacitor")
      (docs ~)
      (footprints
        (fp C_*))
      (fields
        (field (name Reference) C)
        (field (name Value) C))
      (pins
        (pin (num 1) (name ~) (type passive))
        (pin (num 2) (name ~) (type passive))))
    (libpart (lib Device) (part CP)
      (description "Polarized capacitor")
      (docs ~)
      (footprints
        (fp CP_*))
      (fields
        (field (name Reference) C)
        (field (name Value) CP))
      (pins
        (pin (num 1) (name ~) (type passive))
        (pin (num 2) (name ~) (type passive))))
    (libpart (lib Device) (part D)
      (description Diode)
      (docs ~)
      (footprints
        (fp TO-???*)
        (fp *_Diode_*)
        (fp *SingleDiode*)
        (fp D_*))
      (fields
        (field (name Reference) D)
        (field (name Value) D))
      (pins
        (pin (num 1) (name K) (type passive))
        (pin (num 2) (name A) (type passive))))
    (libpart (lib Device) (part Fuse)
      (description Fuse)
      (docs ~)
      (footprints
        (fp *Fuse*))
      (fields
        (field (name Reference) F)
        (field (name Value) Fuse))
      (pins
        (pin (num 1) (name ~) (type passive))
        (pin (num 2) (name ~) (type passive))))
    (libpart (lib Device) (part Jumper_NO_Small)
      (description "Jumper, normally open, small symbol")
      (docs ~)
      (fields
        (field (name Reference) JP)
        (field (name Value) Jumper_NO_Small))
      (pins
        (pin (num 1) (name 1) (type passive))
        (pin (num 2) (name 2) (type passive))))
    (libpart (lib Device) (part R)
      (description Resistor)
      (docs ~)
      (footprints
        (fp R_*))
      (fields
        (field (name Reference) R)
        (field (name Value) R))
      (pins
        (pin (num 1) (name ~) (type passive))
        (pin (num 2) (name ~) (type passive))))
    (libpart (lib Device) (part Varistor)
      (description "Voltage dependent resistor")
      (docs ~)
      (footprints
        (fp RV_*)
        (fp Varistor*))
      (fields
        (field (name Reference) RV)
        (field (name Value) Varistor))
      (pins
        (pin (num 1) (name ~) (type passive))
        (pin (num 2) (name ~) (type passive))))
    (libpart (lib RF_Module) (part ESP-12E)
      (aliases
        (alias ESP-12F))
      (description "802.11 b/g/n Wi-Fi Module")
      (docs http://wiki.ai-thinker.com/_media/esp8266/esp8266_series_modules_user_manual_v1.1.pdf)
      (footprints
        (fp ESP?12*))
      (fields
        (field (name Reference) U)
        (field (name Value) ESP-12E)
        (field (name Footprint) RF_Module:ESP-12E))
      (pins
        (pin (num 1) (name ~RST) (type input))
        (pin (num 2) (name ADC) (type input))
        (pin (num 3) (name EN) (type input))
        (pin (num 4) (name GPIO16) (type BiDi))
        (pin (num 5) (name GPIO14) (type BiDi))
        (pin (num 6) (name GPIO12) (type BiDi))
        (pin (num 7) (name GPIO13) (type BiDi))
        (pin (num 8) (name VCC) (type power_in))
        (pin (num 9) (name CS0) (type input))
        (pin (num 10) (name MISO) (type BiDi))
        (pin (num 11) (name GPIO9) (type BiDi))
        (pin (num 12) (name GPIO10) (type BiDi))
        (pin (num 13) (name MOSI) (type BiDi))
        (pin (num 14) (name SCLK) (type BiDi))
        (pin (num 15) (name GND) (type power_in))
        (pin (num 16) (name GPIO15) (type BiDi))
        (pin (num 17) (name GPIO2) (type BiDi))
        (pin (num 18) (name GPIO0) (type BiDi))
        (pin (num 19) (name GPIO4) (type BiDi))
        (pin (num 20) (name GPIO5) (type BiDi))
        (pin (num 21) (name GPIO3/RXD) (type BiDi))
        (pin (num 22) (name GPIO1/TXD) (type BiDi))))
    (libpart (lib Relay_SolidState) (part MOC3031M)
      (aliases
        (alias MOC3032M)
        (alias MOC3033M)
        (alias MOC3041M)
        (alias MOC3042M)
        (alias MOC3043M)
        (alias MOC3081M)
        (alias MOC3082M)
        (alias MOC3083M)
        (alias MOC3061M)
        (alias MOC3062M)
        (alias MOC3063M)
        (alias MOC3162M)
        (alias MOC3163M))
      (description "Zero Cross Opto-Triac, Vdrm 250V, Ift 15mA, DIP6")
      (docs http://www.fairchildsemi.com/ds/MO/MOC3031M.pdf)
      (footprints
        (fp DIP*W7.62mm*)
        (fp SMDIP*W9.53mm*)
        (fp DIP*W10.16mm*))
      (fields
        (field (name Reference) U)
        (field (name Value) MOC3031M))
      (pins
        (pin (num 1) (name ~) (type passive))
        (pin (num 2) (name ~) (type passive))
        (pin (num 3) (name NC) (type NotConnected))
        (pin (num 4) (name ~) (type passive))
        (pin (num 5) (name NC) (type NotConnected))
        (pin (num 6) (name ~) (type passive))))
    (libpart (lib Switch) (part SW_Push)
      (description "Push button switch, generic, two pins")
      (fields
        (field (name Reference) SW)
        (field (name Value) SW_Push))
      (pins
        (pin (num 1) (name 1) (type passive))
        (pin (num 2) (name 2) (type passive))))
    (libpart (lib vtx-214-002-103) (part VTX-214-002-103)
      (aliases
        (alias VTX-214-002-105)
        (alias VTX-214-002-106)
        (alias VTX-214-002-107)
        (alias VTX-214-002-108)
        (alias VTX-214-002-109)
        (alias VTX-214-002-110)
        (alias VTX-214-002-112)
        (alias VTX-214-002-115)
        (alias VTX-214-002-118)
        (alias VTX-214-002-124)
        (alias VTX-214-002-148))
      (description "3V Vigortronix 2W Low Profile ACDC Converters")
      (docs http://www.vigortronix.com/2WLowProfileAC-DCConverters)
      (footprints
        (fp Converter*ACDC*Vigortronix*VTX*214*002*1xx*))
      (fields
        (field (name Reference) PS)
        (field (name Value) VTX-214-002-103)
        (field (name Footprint) Converter_ACDC:Converter_ACDC_Vigortronix_Low_Profile_VTX-214-002-1xx_THT))
      (pins
        (pin (num 1) (name GND) (type power_out))
        (pin (num 2) (name DC+V) (type power_out))
        (pin (num 3) (name AC/N) (type power_in))
        (pin (num 4) (name AC/L) (type power_in)))))
  (libraries
    (library (logical Connector)
      (uri /usr/share/kicad/library/Connector.lib))
    (library (logical Device)
      (uri /usr/share/kicad/library/Device.lib))
    (library (logical RF_Module)
      (uri /usr/share/kicad/library/RF_Module.lib))
    (library (logical Relay_SolidState)
      (uri /usr/share/kicad/library/Relay_SolidState.lib))
    (library (logical Switch)
      (uri /usr/share/kicad/library/Switch.lib))
    (library (logical vtx-214-002-103)
      (uri ${KIPRJMOD}/library/vtx-214-002-103.lib)))
  (nets
    (net (code 1) (name "Net-(JP2-Pad2)")
      (node (ref JP2) (pin 2))
      (node (ref U2) (pin 4)))
    (net (code 2) (name "Net-(D11-Pad1)")
      (node (ref D11) (pin 1))
      (node (ref J1) (pin 4)))
    (net (code 3) (name "Net-(D14-Pad1)")
      (node (ref D14) (pin 1))
      (node (ref J1) (pin 1)))
    (net (code 4) (name "Net-(D13-Pad1)")
      (node (ref D13) (pin 1))
      (node (ref J1) (pin 2)))
    (net (code 5) (name "Net-(D12-Pad1)")
      (node (ref J1) (pin 3))
      (node (ref D12) (pin 1)))
    (net (code 6) (name "Net-(R14-Pad2)")
      (node (ref R14) (pin 2))
      (node (ref U2) (pin 19)))
    (net (code 7) (name +3V3)
      (node (ref C1) (pin 1))
      (node (ref C4) (pin 1))
      (node (ref U2) (pin 8))
      (node (ref J2) (pin 1))
      (node (ref PS1) (pin 2))
      (node (ref R2) (pin 1))
      (node (ref R5) (pin 1))
      (node (ref R1) (pin 2))
      (node (ref R3) (pin 1)))
    (net (code 8) (name GNDPWR)
      (node (ref JP1) (pin 2))
      (node (ref U2) (pin 15))
      (node (ref U11) (pin 2))
      (node (ref R4) (pin 2))
      (node (ref U14) (pin 2))
      (node (ref U13) (pin 2))
      (node (ref U12) (pin 2))
      (node (ref C1) (pin 2))
      (node (ref SW1) (pin 1))
      (node (ref C4) (pin 2))
      (node (ref C3) (pin 2))
      (node (ref J3) (pin 1))
      (node (ref PS1) (pin 1)))
    (net (code 9) (name "Net-(C3-Pad1)")
      (node (ref U2) (pin 1))
      (node (ref JP2) (pin 1))
      (node (ref R5) (pin 2))
      (node (ref SW1) (pin 2))
      (node (ref C3) (pin 1)))
    (net (code 10) (name "Net-(U2-Pad2)")
      (node (ref U2) (pin 2)))
    (net (code 11) (name "Net-(U2-Pad9)")
      (node (ref U2) (pin 9)))
    (net (code 12) (name "Net-(U2-Pad10)")
      (node (ref U2) (pin 10)))
    (net (code 13) (name "Net-(R13-Pad2)")
      (node (ref U2) (pin 7))
      (node (ref R13) (pin 2)))
    (net (code 14) (name "Net-(R11-Pad2)")
      (node (ref R11) (pin 2))
      (node (ref U2) (pin 5)))
    (net (code 15) (name "Net-(14D431-Pad1)")
      (node (ref J1) (pin 5))
      (node (ref 14D431) (pin 1))
      (node (ref B32922C3104K189) (pin 1))
      (node (ref PS1) (pin 3)))
    (net (code 16) (name "Net-(F1-Pad1)")
      (node (ref F1) (pin 1))
      (node (ref J1) (pin 6)))
    (net (code 17) (name "Net-(J4-Pad2)")
      (node (ref J4) (pin 2))
      (node (ref U2) (pin 22)))
    (net (code 18) (name "Net-(J4-Pad1)")
      (node (ref U2) (pin 21))
      (node (ref J4) (pin 1)))
    (net (code 19) (name "Net-(14D431-Pad2)")
      (node (ref F1) (pin 2))
      (node (ref U13) (pin 6))
      (node (ref U14) (pin 4))
      (node (ref U12) (pin 4))
      (node (ref U11) (pin 6))
      (node (ref PS1) (pin 4))
      (node (ref B32922C3104K189) (pin 2))
      (node (ref 14D431) (pin 2)))
    (net (code 20) (name "Net-(R12-Pad2)")
      (node (ref U2) (pin 6))
      (node (ref R12) (pin 2)))
    (net (code 21) (name "Net-(U2-Pad20)")
      (node (ref U2) (pin 20)))
    (net (code 22) (name "Net-(D12-Pad2)")
      (node (ref U12) (pin 6))
      (node (ref D12) (pin 2)))
    (net (code 23) (name "Net-(D11-Pad2)")
      (node (ref D11) (pin 2))
      (node (ref U11) (pin 4)))
    (net (code 24) (name "Net-(R13-Pad1)")
      (node (ref R13) (pin 1))
      (node (ref U13) (pin 1)))
    (net (code 25) (name "Net-(R11-Pad1)")
      (node (ref U11) (pin 1))
      (node (ref R11) (pin 1)))
    (net (code 26) (name "Net-(R14-Pad1)")
      (node (ref R14) (pin 1))
      (node (ref U14) (pin 1)))
    (net (code 27) (name "Net-(U2-Pad11)")
      (node (ref U2) (pin 11)))
    (net (code 28) (name "Net-(R12-Pad1)")
      (node (ref U12) (pin 1))
      (node (ref R12) (pin 1)))
    (net (code 29) (name "Net-(D14-Pad2)")
      (node (ref U14) (pin 6))
      (node (ref D14) (pin 2)))
    (net (code 30) (name "Net-(D13-Pad2)")
      (node (ref D13) (pin 2))
      (node (ref U13) (pin 4)))
    (net (code 31) (name "Net-(U11-Pad5)")
      (node (ref U11) (pin 5)))
    (net (code 32) (name "Net-(U2-Pad14)")
      (node (ref U2) (pin 14)))
    (net (code 33) (name "Net-(U2-Pad13)")
      (node (ref U2) (pin 13)))
    (net (code 34) (name "Net-(U2-Pad12)")
      (node (ref U2) (pin 12)))
    (net (code 35) (name "Net-(U11-Pad3)")
      (node (ref U11) (pin 3)))
    (net (code 36) (name "Net-(U12-Pad5)")
      (node (ref U12) (pin 5)))
    (net (code 37) (name "Net-(R1-Pad1)")
      (node (ref U2) (pin 3))
      (node (ref R1) (pin 1)))
    (net (code 38) (name "Net-(U12-Pad3)")
      (node (ref U12) (pin 3)))
    (net (code 39) (name "Net-(JP1-Pad1)")
      (node (ref U2) (pin 18))
      (node (ref JP1) (pin 1))
      (node (ref R2) (pin 2)))
    (net (code 40) (name "Net-(R3-Pad2)")
      (node (ref U2) (pin 17))
      (node (ref R3) (pin 2)))
    (net (code 41) (name "Net-(U13-Pad5)")
      (node (ref U13) (pin 5)))
    (net (code 42) (name "Net-(U13-Pad3)")
      (node (ref U13) (pin 3)))
    (net (code 43) (name "Net-(U14-Pad5)")
      (node (ref U14) (pin 5)))
    (net (code 44) (name "Net-(U14-Pad3)")
      (node (ref U14) (pin 3)))
    (net (code 45) (name "Net-(R4-Pad1)")
      (node (ref U2) (pin 16))
      (node (ref R4) (pin 1)))))
