M48
;DRILL file {KiCad 5.0.2+dfsg1-1~bpo9+1} date Tue Aug 27 10:51:17 2019
;FORMAT={-:-/ absolute / metric / decimal}
FMAT,2
METRIC,TZ
T1C0.400
T2C0.800
T3C1.000
T4C1.100
T5C1.200
T6C1.300
T7C1.500
T8C2.200
T9C2.700
%
G90
G05
T1
X101.8Y-71.5
X101.935Y-66.915
X101.935Y-80.25
X102.6Y-64.2
X103.1Y-61.
X103.205Y-89.14
X104.Y-66.2
X105.2Y-62.1
X105.2Y-68.7
X107.65Y-89.14
X108.9Y-65.
X108.92Y-84.695
X109.5Y-82.
X110.825Y-79.615
X110.825Y-87.87
X112.095Y-90.41
X112.73Y-84.06
X114.Y-87.87
X114.5Y-82.
X115.2Y-73.4
X115.27Y-70.725
X116.54Y-86.6
X117.175Y-83.425
X118.Y-70.
X118.7Y-80.1
X118.8Y-74.3
X119.08Y-61.835
X119.08Y-89.14
X121.5Y-88.
X121.8Y-67.
X122.89Y-89.775
X123.3Y-62.6
X123.5Y-70.4
X124.5Y-69.3
X125.5Y-86.5
X126.1Y-62.3
X126.6Y-68.1
X126.7Y-84.06
X126.7Y-88.505
X128.3Y-62.4
X129.24Y-75.17
X131.78Y-89.14
X135.Y-68.5
X135.Y-73.
X135.5Y-63.
X135.5Y-65.5
X135.5Y-70.5
X135.59Y-61.2
X136.86Y-67.55
X136.86Y-72.63
X136.86Y-81.52
X137.495Y-85.33
X137.5Y-63.5
X137.5Y-66.
X137.5Y-69.5
X139.5Y-67.5
X139.5Y-69.5
X139.5Y-71.5
X140.Y-65.
X140.5Y-62.
X140.5Y-73.
X141.8Y-69.1
X141.8Y-71.4
X141.94Y-63.74
X142.Y-67.
X143.5Y-62.
X143.5Y-66.
X143.5Y-72.5
X144.Y-69.
X144.4Y-85.6
X148.29Y-80.25
X149.7Y-63.7
X152.1Y-66.28
X155.275Y-76.44
X155.91Y-85.33
X158.45Y-82.79
X159.085Y-75.17
X160.99Y-81.52
X161.625Y-71.995
X161.625Y-78.98
X162.Y-69.5
X162.26Y-62.47
X162.26Y-75.17
X162.5Y-64.5
X166.07Y-78.98
X166.3Y-69.4
X166.5Y-64.5
X166.705Y-62.47
X168.1Y-66.9
X169.245Y-64.375
X169.245Y-83.425
X169.88Y-68.82
X169.88Y-72.63
X170.515Y-77.075
X171.15Y-81.52
X172.42Y-61.2
X172.42Y-65.01
X172.42Y-84.695
X173.69Y-68.185
X173.69Y-70.725
X173.69Y-73.9
X173.69Y-81.52
X174.96Y-77.71
X174.96Y-86.6
X175.595Y-63.105
X176.23Y-67.55
X176.23Y-71.995
X176.23Y-82.155
X176.23Y-89.14
T2
X115.27Y-67.55
X115.27Y-77.71
X103.88Y-75.805
X106.38Y-75.805
X122.9Y-72.7
X122.9Y-75.2
X108.285Y-113.905
X115.785Y-115.605
X144.48Y-87.87
X144.48Y-95.49
X147.02Y-87.87
X147.02Y-95.49
X149.56Y-87.87
X149.56Y-95.49
X155.91Y-87.87
X155.91Y-95.49
X158.45Y-87.87
X158.45Y-95.49
X160.99Y-87.87
X160.99Y-95.49
X164.8Y-87.87
X164.8Y-95.49
X167.34Y-87.87
X167.34Y-95.49
X169.88Y-87.87
X169.88Y-95.49
X166.07Y-73.9
X166.07Y-84.06
X158.45Y-70.09
X158.45Y-80.25
X113.9Y-62.6
X113.9Y-65.1
X131.78Y-81.52
X141.94Y-81.52
X150.83Y-85.33
X160.99Y-85.33
X131.78Y-85.33
X141.94Y-85.33
X154.64Y-71.36
X154.64Y-81.52
X135.59Y-87.87
X135.59Y-95.49
X138.13Y-87.87
X138.13Y-95.49
X140.67Y-87.87
X140.67Y-95.49
X150.83Y-72.63
X150.83Y-82.79
X118.9Y-67.6
X118.9Y-77.76
T3
X122.8Y-78.2
X154.64Y-67.55
X157.18Y-67.55
X117.1Y-61.9
X154.005Y-62.47
X156.545Y-62.47
X111.46Y-73.
X111.46Y-75.54
T4
X149.56Y-98.03
X149.56Y-108.19
X169.88Y-98.03
X169.88Y-108.19
X135.59Y-98.03
X135.59Y-108.19
X155.91Y-98.03
X155.91Y-108.19
T5
X105.745Y-108.825
X120.745Y-108.825
T6
X142.6Y-119.
X147.68Y-119.
X152.76Y-119.
X157.84Y-119.
X162.92Y-119.
X168.Y-119.
X115.Y-122.795
X137.5Y-122.795
T7
X104.12Y-83.425
X104.12Y-100.925
X121.62Y-83.425
X123.12Y-100.925
T8
X105.5Y-123.5
X173.5Y-55.5
X105.5Y-55.5
X173.5Y-123.5
T9
X126.25Y-122.795
T0
M30
