%TF.GenerationSoftware,KiCad,Pcbnew,5.0.2+dfsg1-1~bpo9+1*%
%TF.CreationDate,2019-08-27T10:40:07+02:00*%
%TF.ProjectId,heating_control,68656174-696e-4675-9f63-6f6e74726f6c,rev?*%
%TF.SameCoordinates,Original*%
%TF.FileFunction,Copper,L2,Bot*%
%TF.FilePolarity,Positive*%
%FSLAX46Y46*%
G04 Gerber Fmt 4.6, Leading zero omitted, Abs format (unit mm)*
G04 Created by KiCad (PCBNEW 5.0.2+dfsg1-1~bpo9+1) date Tue Aug 27 10:40:07 2019*
%MOMM*%
%LPD*%
G01*
G04 APERTURE LIST*
%ADD10R,1.700000X1.700000*%
%ADD11O,1.700000X1.700000*%
%ADD12C,1.800000*%
%ADD13C,1.600000*%
%ADD14O,1.600000X1.600000*%
%ADD15R,1.600000X1.600000*%
%ADD16R,2.200000X2.200000*%
%ADD17O,2.200000X2.200000*%
%ADD18C,3.000000*%
%ADD19R,3.000000X3.000000*%
%ADD20C,2.400000*%
%ADD21R,2.600000X2.600000*%
%ADD22C,2.600000*%
%ADD23C,0.800000*%
%ADD24C,1.000000*%
%ADD25C,0.254000*%
G04 APERTURE END LIST*
D10*
X154005000Y-62470000D03*
D11*
X156545000Y-62470000D03*
D12*
X115785000Y-115605000D03*
X108285000Y-113905000D03*
D13*
X141940000Y-85330000D03*
D14*
X131780000Y-85330000D03*
D13*
X118900000Y-67600000D03*
D14*
X118900000Y-77760000D03*
D13*
X103880000Y-75805000D03*
D15*
X106380000Y-75805000D03*
D16*
X135590000Y-108190000D03*
D17*
X135590000Y-98030000D03*
X149560000Y-98030000D03*
D16*
X149560000Y-108190000D03*
X155910000Y-108190000D03*
D17*
X155910000Y-98030000D03*
X169880000Y-98030000D03*
D16*
X169880000Y-108190000D03*
D18*
X115000000Y-122795000D03*
X137500000Y-122795000D03*
D10*
X154640000Y-67550000D03*
D11*
X157180000Y-67550000D03*
X111460000Y-75540000D03*
D10*
X111460000Y-73000000D03*
D14*
X158450000Y-70090000D03*
D13*
X158450000Y-80250000D03*
X154640000Y-81520000D03*
D14*
X154640000Y-71360000D03*
X150830000Y-82790000D03*
D13*
X150830000Y-72630000D03*
X115270000Y-77710000D03*
D14*
X115270000Y-67550000D03*
X131780000Y-81520000D03*
D13*
X141940000Y-81520000D03*
X160990000Y-85330000D03*
D14*
X150830000Y-85330000D03*
X166070000Y-73900000D03*
D13*
X166070000Y-84060000D03*
D15*
X140670000Y-87870000D03*
D14*
X135590000Y-95490000D03*
X138130000Y-87870000D03*
X138130000Y-95490000D03*
X135590000Y-87870000D03*
X140670000Y-95490000D03*
X149560000Y-95490000D03*
X144480000Y-87870000D03*
X147020000Y-95490000D03*
X147020000Y-87870000D03*
X144480000Y-95490000D03*
D15*
X149560000Y-87870000D03*
D14*
X160990000Y-95490000D03*
X155910000Y-87870000D03*
X158450000Y-95490000D03*
X158450000Y-87870000D03*
X155910000Y-95490000D03*
D15*
X160990000Y-87870000D03*
X169880000Y-87870000D03*
D14*
X164800000Y-95490000D03*
X167340000Y-87870000D03*
X167340000Y-95490000D03*
X164800000Y-87870000D03*
X169880000Y-95490000D03*
D18*
X123120000Y-100925000D03*
X104120000Y-100925000D03*
X104120000Y-83425000D03*
D19*
X121620000Y-83425000D03*
D10*
X122800000Y-78200000D03*
X117100000Y-61900000D03*
D20*
X120745000Y-108825000D03*
X105745000Y-108825000D03*
D21*
X168000000Y-119000000D03*
D22*
X162920000Y-119000000D03*
X157840000Y-119000000D03*
X152760000Y-119000000D03*
X147680000Y-119000000D03*
X142600000Y-119000000D03*
D13*
X113900000Y-62600000D03*
X113900000Y-65100000D03*
X122900000Y-72700000D03*
X122900000Y-75200000D03*
D23*
X162500000Y-64500000D03*
X108900000Y-65000000D03*
X104000000Y-66200000D03*
X101800000Y-71500000D03*
X112730000Y-84060000D03*
X119080000Y-89140000D03*
X107650000Y-89140000D03*
X148290000Y-80250000D03*
X135590000Y-61200000D03*
X141940000Y-63740000D03*
X136860000Y-67550000D03*
X141800000Y-69100000D03*
X136860000Y-72630000D03*
X131780000Y-89140000D03*
X136860000Y-81520000D03*
X172420000Y-61200000D03*
X169880000Y-72630000D03*
X171150000Y-81520000D03*
X162260000Y-75170000D03*
X160990000Y-81520000D03*
X158450000Y-82790000D03*
X152100000Y-66280000D03*
X162000000Y-69500000D03*
X173690000Y-68185000D03*
X174960000Y-77710000D03*
X174960000Y-86600000D03*
X176230000Y-82155000D03*
X170515000Y-77075000D03*
X166070000Y-78980000D03*
X172420000Y-65010000D03*
X166705000Y-62470000D03*
X162260000Y-62470000D03*
X175595000Y-63105000D03*
X169245000Y-64375000D03*
X169880000Y-68820000D03*
X173690000Y-70725000D03*
X173690000Y-73900000D03*
X176230000Y-67550000D03*
X161625000Y-71995000D03*
X159085000Y-75170000D03*
X155275000Y-76440000D03*
X161625000Y-78980000D03*
X172420000Y-84695000D03*
X176230000Y-89140000D03*
X173690000Y-81520000D03*
X117175000Y-83425000D03*
X114000000Y-87870000D03*
X108920000Y-84695000D03*
X126700000Y-88505000D03*
X126700000Y-84060000D03*
X110825000Y-79615000D03*
X105200000Y-68700000D03*
X103100000Y-61000000D03*
X119080000Y-61835000D03*
X105200000Y-62100000D03*
X101935000Y-66915000D03*
X115270000Y-70725000D03*
X101935000Y-80250000D03*
X103205000Y-89140000D03*
X121500000Y-88000000D03*
X110825000Y-87870000D03*
X112095000Y-90410000D03*
X116540000Y-86600000D03*
X122890000Y-89775000D03*
X169245000Y-83425000D03*
X176230000Y-71995000D03*
X137495000Y-85330000D03*
X144400000Y-85600000D03*
X155910000Y-85330000D03*
X137500000Y-63500000D03*
X142000000Y-67000000D03*
X139500000Y-71500000D03*
X139500000Y-67500000D03*
X140500000Y-62000000D03*
X135500000Y-70500000D03*
X143500000Y-72500000D03*
X135500000Y-65500000D03*
X140000000Y-65000000D03*
X140500000Y-73000000D03*
X137500000Y-69500000D03*
X143500000Y-66000000D03*
X143500000Y-62000000D03*
X135500000Y-63000000D03*
X137500000Y-66000000D03*
X135000000Y-68500000D03*
X144000000Y-69000000D03*
X139500000Y-69500000D03*
X135000000Y-73000000D03*
X168100000Y-66900000D03*
X166500000Y-64500000D03*
X102600000Y-64200000D03*
X109500000Y-82000000D03*
X114500000Y-82000000D03*
X125500000Y-86500000D03*
X149700000Y-63700000D03*
X166300000Y-69400000D03*
X118700000Y-80100000D03*
X123300000Y-62600000D03*
X126100000Y-62300000D03*
X128300000Y-62400000D03*
X115200000Y-73400000D03*
X118000000Y-70000000D03*
X124500000Y-69300000D03*
X126600000Y-68100000D03*
X123500000Y-70400000D03*
X121800000Y-67000000D03*
X118800000Y-74300000D03*
X141800000Y-71400000D03*
X129240000Y-75170000D03*
D24*
X108285000Y-111365000D02*
X105745000Y-108825000D01*
X108285000Y-113905000D02*
X108285000Y-111365000D01*
X105745000Y-108825000D02*
X105745000Y-102550000D01*
X105745000Y-102550000D02*
X104120000Y-100925000D01*
X147680000Y-124120000D02*
X147680000Y-119000000D01*
X143800000Y-128000000D02*
X147680000Y-124120000D01*
X108285000Y-113905000D02*
X110000000Y-115620000D01*
X110000000Y-115620000D02*
X110000000Y-127000000D01*
X110000000Y-127000000D02*
X111000000Y-128000000D01*
X111000000Y-128000000D02*
X143800000Y-128000000D01*
X160990000Y-95490000D02*
X164800000Y-95490000D01*
X144480000Y-95490000D02*
X140670000Y-95490000D01*
X115785000Y-113785000D02*
X120745000Y-108825000D01*
X115785000Y-115605000D02*
X115785000Y-113785000D01*
X124160000Y-108825000D02*
X127015000Y-105970000D01*
X120745000Y-108825000D02*
X124160000Y-108825000D01*
X127015000Y-104820000D02*
X123120000Y-100925000D01*
X127015000Y-105970000D02*
X127015000Y-104820000D01*
X115000000Y-116390000D02*
X115785000Y-115605000D01*
X115000000Y-122795000D02*
X115000000Y-116390000D01*
X164800000Y-99100000D02*
X164800000Y-95490000D01*
X127015000Y-105970000D02*
X130190000Y-105970000D01*
X130190000Y-105970000D02*
X133060000Y-103100000D01*
X160800000Y-103100000D02*
X164800000Y-99100000D01*
X137500000Y-103100000D02*
X160800000Y-103100000D01*
X133060000Y-103100000D02*
X137500000Y-103100000D01*
X138200000Y-103100000D02*
X137500000Y-103100000D01*
X140670000Y-100630000D02*
X138200000Y-103100000D01*
X140670000Y-95490000D02*
X140670000Y-100630000D01*
X129240000Y-75170000D02*
X129210000Y-75200000D01*
X129210000Y-75200000D02*
X122860000Y-75200000D01*
X122860000Y-75200000D02*
X122800000Y-75260000D01*
X149600000Y-114000000D02*
X152760000Y-117160000D01*
X146000000Y-114000000D02*
X149600000Y-114000000D01*
X135590000Y-108190000D02*
X137690000Y-108190000D01*
X152760000Y-117160000D02*
X152760000Y-119000000D01*
X137690000Y-108190000D02*
X141500000Y-112000000D01*
X141500000Y-112000000D02*
X144000000Y-112000000D01*
X144000000Y-112000000D02*
X146000000Y-114000000D01*
X135590000Y-95490000D02*
X135590000Y-98030000D01*
X149560000Y-95490000D02*
X149560000Y-98030000D01*
X149560000Y-108190000D02*
X149560000Y-108825000D01*
X149560000Y-108190000D02*
X149560000Y-108460000D01*
X154100000Y-113000000D02*
X157000000Y-113000000D01*
X149560000Y-108460000D02*
X154100000Y-113000000D01*
X157840000Y-113840000D02*
X157840000Y-119000000D01*
X157000000Y-113000000D02*
X157840000Y-113840000D01*
X158690000Y-108190000D02*
X162920000Y-112420000D01*
X162920000Y-112420000D02*
X162920000Y-119000000D01*
X155910000Y-108190000D02*
X158690000Y-108190000D01*
X155910000Y-95490000D02*
X155910000Y-98030000D01*
X169880000Y-95490000D02*
X169880000Y-98030000D01*
X169880000Y-117120000D02*
X168000000Y-119000000D01*
X169880000Y-108190000D02*
X169880000Y-117120000D01*
X138805000Y-122795000D02*
X142600000Y-119000000D01*
X137500000Y-122795000D02*
X138805000Y-122795000D01*
D25*
G36*
X177873000Y-91873000D02*
X101127000Y-91873000D01*
X101127000Y-87870000D01*
X134126887Y-87870000D01*
X134238260Y-88429909D01*
X134555423Y-88904577D01*
X135030091Y-89221740D01*
X135448667Y-89305000D01*
X135731333Y-89305000D01*
X136149909Y-89221740D01*
X136624577Y-88904577D01*
X136880947Y-88520892D01*
X136977611Y-88725134D01*
X137392577Y-89101041D01*
X137780961Y-89261904D01*
X138003000Y-89139915D01*
X138003000Y-87997000D01*
X137983000Y-87997000D01*
X137983000Y-87743000D01*
X138003000Y-87743000D01*
X138003000Y-86600085D01*
X138257000Y-86600085D01*
X138257000Y-87743000D01*
X138277000Y-87743000D01*
X138277000Y-87997000D01*
X138257000Y-87997000D01*
X138257000Y-89139915D01*
X138479039Y-89261904D01*
X138867423Y-89101041D01*
X139240987Y-88762639D01*
X139271843Y-88917765D01*
X139412191Y-89127809D01*
X139622235Y-89268157D01*
X139870000Y-89317440D01*
X141470000Y-89317440D01*
X141717765Y-89268157D01*
X141927809Y-89127809D01*
X142068157Y-88917765D01*
X142117440Y-88670000D01*
X142117440Y-87870000D01*
X143016887Y-87870000D01*
X143128260Y-88429909D01*
X143445423Y-88904577D01*
X143920091Y-89221740D01*
X144338667Y-89305000D01*
X144621333Y-89305000D01*
X145039909Y-89221740D01*
X145514577Y-88904577D01*
X145770947Y-88520892D01*
X145867611Y-88725134D01*
X146282577Y-89101041D01*
X146670961Y-89261904D01*
X146893000Y-89139915D01*
X146893000Y-87997000D01*
X146873000Y-87997000D01*
X146873000Y-87743000D01*
X146893000Y-87743000D01*
X146893000Y-86600085D01*
X147147000Y-86600085D01*
X147147000Y-87743000D01*
X147167000Y-87743000D01*
X147167000Y-87997000D01*
X147147000Y-87997000D01*
X147147000Y-89139915D01*
X147369039Y-89261904D01*
X147757423Y-89101041D01*
X148130987Y-88762639D01*
X148161843Y-88917765D01*
X148302191Y-89127809D01*
X148512235Y-89268157D01*
X148760000Y-89317440D01*
X150360000Y-89317440D01*
X150607765Y-89268157D01*
X150817809Y-89127809D01*
X150958157Y-88917765D01*
X151007440Y-88670000D01*
X151007440Y-87870000D01*
X154446887Y-87870000D01*
X154558260Y-88429909D01*
X154875423Y-88904577D01*
X155350091Y-89221740D01*
X155768667Y-89305000D01*
X156051333Y-89305000D01*
X156469909Y-89221740D01*
X156944577Y-88904577D01*
X157200947Y-88520892D01*
X157297611Y-88725134D01*
X157712577Y-89101041D01*
X158100961Y-89261904D01*
X158323000Y-89139915D01*
X158323000Y-87997000D01*
X158303000Y-87997000D01*
X158303000Y-87743000D01*
X158323000Y-87743000D01*
X158323000Y-86600085D01*
X158577000Y-86600085D01*
X158577000Y-87743000D01*
X158597000Y-87743000D01*
X158597000Y-87997000D01*
X158577000Y-87997000D01*
X158577000Y-89139915D01*
X158799039Y-89261904D01*
X159187423Y-89101041D01*
X159560987Y-88762639D01*
X159591843Y-88917765D01*
X159732191Y-89127809D01*
X159942235Y-89268157D01*
X160190000Y-89317440D01*
X161790000Y-89317440D01*
X162037765Y-89268157D01*
X162247809Y-89127809D01*
X162388157Y-88917765D01*
X162437440Y-88670000D01*
X162437440Y-87870000D01*
X163336887Y-87870000D01*
X163448260Y-88429909D01*
X163765423Y-88904577D01*
X164240091Y-89221740D01*
X164658667Y-89305000D01*
X164941333Y-89305000D01*
X165359909Y-89221740D01*
X165834577Y-88904577D01*
X166090947Y-88520892D01*
X166187611Y-88725134D01*
X166602577Y-89101041D01*
X166990961Y-89261904D01*
X167213000Y-89139915D01*
X167213000Y-87997000D01*
X167193000Y-87997000D01*
X167193000Y-87743000D01*
X167213000Y-87743000D01*
X167213000Y-86600085D01*
X167467000Y-86600085D01*
X167467000Y-87743000D01*
X167487000Y-87743000D01*
X167487000Y-87997000D01*
X167467000Y-87997000D01*
X167467000Y-89139915D01*
X167689039Y-89261904D01*
X168077423Y-89101041D01*
X168450987Y-88762639D01*
X168481843Y-88917765D01*
X168622191Y-89127809D01*
X168832235Y-89268157D01*
X169080000Y-89317440D01*
X170680000Y-89317440D01*
X170927765Y-89268157D01*
X171137809Y-89127809D01*
X171278157Y-88917765D01*
X171327440Y-88670000D01*
X171327440Y-87070000D01*
X171278157Y-86822235D01*
X171137809Y-86612191D01*
X170927765Y-86471843D01*
X170680000Y-86422560D01*
X169080000Y-86422560D01*
X168832235Y-86471843D01*
X168622191Y-86612191D01*
X168481843Y-86822235D01*
X168450987Y-86977361D01*
X168077423Y-86638959D01*
X167689039Y-86478096D01*
X167467000Y-86600085D01*
X167213000Y-86600085D01*
X166990961Y-86478096D01*
X166602577Y-86638959D01*
X166187611Y-87014866D01*
X166090947Y-87219108D01*
X165834577Y-86835423D01*
X165359909Y-86518260D01*
X164941333Y-86435000D01*
X164658667Y-86435000D01*
X164240091Y-86518260D01*
X163765423Y-86835423D01*
X163448260Y-87310091D01*
X163336887Y-87870000D01*
X162437440Y-87870000D01*
X162437440Y-87070000D01*
X162388157Y-86822235D01*
X162247809Y-86612191D01*
X162037765Y-86471843D01*
X161904134Y-86445262D01*
X162206534Y-86142862D01*
X162425000Y-85615439D01*
X162425000Y-85044561D01*
X162206534Y-84517138D01*
X161802862Y-84113466D01*
X161275439Y-83895000D01*
X160704561Y-83895000D01*
X160177138Y-84113466D01*
X159773466Y-84517138D01*
X159555000Y-85044561D01*
X159555000Y-85615439D01*
X159773466Y-86142862D01*
X160075866Y-86445262D01*
X159942235Y-86471843D01*
X159732191Y-86612191D01*
X159591843Y-86822235D01*
X159560987Y-86977361D01*
X159187423Y-86638959D01*
X158799039Y-86478096D01*
X158577000Y-86600085D01*
X158323000Y-86600085D01*
X158100961Y-86478096D01*
X157712577Y-86638959D01*
X157297611Y-87014866D01*
X157200947Y-87219108D01*
X156944577Y-86835423D01*
X156469909Y-86518260D01*
X156051333Y-86435000D01*
X155768667Y-86435000D01*
X155350091Y-86518260D01*
X154875423Y-86835423D01*
X154558260Y-87310091D01*
X154446887Y-87870000D01*
X151007440Y-87870000D01*
X151007440Y-87070000D01*
X150958157Y-86822235D01*
X150919913Y-86765000D01*
X150971333Y-86765000D01*
X151389909Y-86681740D01*
X151864577Y-86364577D01*
X152181740Y-85889909D01*
X152293113Y-85330000D01*
X152181740Y-84770091D01*
X151864577Y-84295423D01*
X151497363Y-84050059D01*
X151567423Y-84021041D01*
X151839513Y-83774561D01*
X164635000Y-83774561D01*
X164635000Y-84345439D01*
X164853466Y-84872862D01*
X165257138Y-85276534D01*
X165784561Y-85495000D01*
X166355439Y-85495000D01*
X166882862Y-85276534D01*
X167286534Y-84872862D01*
X167505000Y-84345439D01*
X167505000Y-83774561D01*
X167286534Y-83247138D01*
X166882862Y-82843466D01*
X166355439Y-82625000D01*
X165784561Y-82625000D01*
X165257138Y-82843466D01*
X164853466Y-83247138D01*
X164635000Y-83774561D01*
X151839513Y-83774561D01*
X151982389Y-83645134D01*
X152221914Y-83139041D01*
X152100629Y-82917000D01*
X150957000Y-82917000D01*
X150957000Y-82937000D01*
X150703000Y-82937000D01*
X150703000Y-82917000D01*
X149559371Y-82917000D01*
X149438086Y-83139041D01*
X149677611Y-83645134D01*
X150092577Y-84021041D01*
X150162637Y-84050059D01*
X149795423Y-84295423D01*
X149478260Y-84770091D01*
X149366887Y-85330000D01*
X149478260Y-85889909D01*
X149795423Y-86364577D01*
X149882201Y-86422560D01*
X148760000Y-86422560D01*
X148512235Y-86471843D01*
X148302191Y-86612191D01*
X148161843Y-86822235D01*
X148130987Y-86977361D01*
X147757423Y-86638959D01*
X147369039Y-86478096D01*
X147147000Y-86600085D01*
X146893000Y-86600085D01*
X146670961Y-86478096D01*
X146282577Y-86638959D01*
X145867611Y-87014866D01*
X145770947Y-87219108D01*
X145514577Y-86835423D01*
X145039909Y-86518260D01*
X144621333Y-86435000D01*
X144338667Y-86435000D01*
X143920091Y-86518260D01*
X143445423Y-86835423D01*
X143128260Y-87310091D01*
X143016887Y-87870000D01*
X142117440Y-87870000D01*
X142117440Y-87070000D01*
X142068157Y-86822235D01*
X142029913Y-86765000D01*
X142225439Y-86765000D01*
X142752862Y-86546534D01*
X143156534Y-86142862D01*
X143375000Y-85615439D01*
X143375000Y-85044561D01*
X143156534Y-84517138D01*
X142752862Y-84113466D01*
X142225439Y-83895000D01*
X141654561Y-83895000D01*
X141127138Y-84113466D01*
X140723466Y-84517138D01*
X140505000Y-85044561D01*
X140505000Y-85615439D01*
X140723466Y-86142862D01*
X141003164Y-86422560D01*
X139870000Y-86422560D01*
X139622235Y-86471843D01*
X139412191Y-86612191D01*
X139271843Y-86822235D01*
X139240987Y-86977361D01*
X138867423Y-86638959D01*
X138479039Y-86478096D01*
X138257000Y-86600085D01*
X138003000Y-86600085D01*
X137780961Y-86478096D01*
X137392577Y-86638959D01*
X136977611Y-87014866D01*
X136880947Y-87219108D01*
X136624577Y-86835423D01*
X136149909Y-86518260D01*
X135731333Y-86435000D01*
X135448667Y-86435000D01*
X135030091Y-86518260D01*
X134555423Y-86835423D01*
X134238260Y-87310091D01*
X134126887Y-87870000D01*
X101127000Y-87870000D01*
X101127000Y-83000322D01*
X101985000Y-83000322D01*
X101985000Y-83849678D01*
X102310034Y-84634380D01*
X102910620Y-85234966D01*
X103695322Y-85560000D01*
X104544678Y-85560000D01*
X105329380Y-85234966D01*
X105929966Y-84634380D01*
X106255000Y-83849678D01*
X106255000Y-83710750D01*
X119485000Y-83710750D01*
X119485000Y-85051309D01*
X119581673Y-85284698D01*
X119760301Y-85463327D01*
X119993690Y-85560000D01*
X121334250Y-85560000D01*
X121493000Y-85401250D01*
X121493000Y-83552000D01*
X121747000Y-83552000D01*
X121747000Y-85401250D01*
X121905750Y-85560000D01*
X123246310Y-85560000D01*
X123479699Y-85463327D01*
X123613025Y-85330000D01*
X130316887Y-85330000D01*
X130428260Y-85889909D01*
X130745423Y-86364577D01*
X131220091Y-86681740D01*
X131638667Y-86765000D01*
X131921333Y-86765000D01*
X132339909Y-86681740D01*
X132814577Y-86364577D01*
X133131740Y-85889909D01*
X133243113Y-85330000D01*
X133131740Y-84770091D01*
X132814577Y-84295423D01*
X132339909Y-83978260D01*
X131921333Y-83895000D01*
X131638667Y-83895000D01*
X131220091Y-83978260D01*
X130745423Y-84295423D01*
X130428260Y-84770091D01*
X130316887Y-85330000D01*
X123613025Y-85330000D01*
X123658327Y-85284698D01*
X123755000Y-85051309D01*
X123755000Y-83710750D01*
X123596250Y-83552000D01*
X121747000Y-83552000D01*
X121493000Y-83552000D01*
X119643750Y-83552000D01*
X119485000Y-83710750D01*
X106255000Y-83710750D01*
X106255000Y-83000322D01*
X105929966Y-82215620D01*
X105513037Y-81798691D01*
X119485000Y-81798691D01*
X119485000Y-83139250D01*
X119643750Y-83298000D01*
X121493000Y-83298000D01*
X121493000Y-81448750D01*
X121747000Y-81448750D01*
X121747000Y-83298000D01*
X123596250Y-83298000D01*
X123755000Y-83139250D01*
X123755000Y-81798691D01*
X123658327Y-81565302D01*
X123613026Y-81520000D01*
X130316887Y-81520000D01*
X130428260Y-82079909D01*
X130745423Y-82554577D01*
X131220091Y-82871740D01*
X131638667Y-82955000D01*
X131921333Y-82955000D01*
X132339909Y-82871740D01*
X132814577Y-82554577D01*
X133131740Y-82079909D01*
X133243113Y-81520000D01*
X133186336Y-81234561D01*
X140505000Y-81234561D01*
X140505000Y-81805439D01*
X140723466Y-82332862D01*
X141127138Y-82736534D01*
X141654561Y-82955000D01*
X142225439Y-82955000D01*
X142752862Y-82736534D01*
X143048437Y-82440959D01*
X149438086Y-82440959D01*
X149559371Y-82663000D01*
X150703000Y-82663000D01*
X150703000Y-81520085D01*
X150957000Y-81520085D01*
X150957000Y-82663000D01*
X152100629Y-82663000D01*
X152221914Y-82440959D01*
X151982389Y-81934866D01*
X151567423Y-81558959D01*
X151179039Y-81398096D01*
X150957000Y-81520085D01*
X150703000Y-81520085D01*
X150480961Y-81398096D01*
X150092577Y-81558959D01*
X149677611Y-81934866D01*
X149438086Y-82440959D01*
X143048437Y-82440959D01*
X143156534Y-82332862D01*
X143375000Y-81805439D01*
X143375000Y-81234561D01*
X153205000Y-81234561D01*
X153205000Y-81805439D01*
X153423466Y-82332862D01*
X153827138Y-82736534D01*
X154354561Y-82955000D01*
X154925439Y-82955000D01*
X155452862Y-82736534D01*
X155856534Y-82332862D01*
X156075000Y-81805439D01*
X156075000Y-81234561D01*
X155856534Y-80707138D01*
X155452862Y-80303466D01*
X154925439Y-80085000D01*
X154354561Y-80085000D01*
X153827138Y-80303466D01*
X153423466Y-80707138D01*
X153205000Y-81234561D01*
X143375000Y-81234561D01*
X143156534Y-80707138D01*
X142752862Y-80303466D01*
X142225439Y-80085000D01*
X141654561Y-80085000D01*
X141127138Y-80303466D01*
X140723466Y-80707138D01*
X140505000Y-81234561D01*
X133186336Y-81234561D01*
X133131740Y-80960091D01*
X132814577Y-80485423D01*
X132339909Y-80168260D01*
X131921333Y-80085000D01*
X131638667Y-80085000D01*
X131220091Y-80168260D01*
X130745423Y-80485423D01*
X130428260Y-80960091D01*
X130316887Y-81520000D01*
X123613026Y-81520000D01*
X123479699Y-81386673D01*
X123246310Y-81290000D01*
X121905750Y-81290000D01*
X121747000Y-81448750D01*
X121493000Y-81448750D01*
X121334250Y-81290000D01*
X119993690Y-81290000D01*
X119760301Y-81386673D01*
X119581673Y-81565302D01*
X119485000Y-81798691D01*
X105513037Y-81798691D01*
X105329380Y-81615034D01*
X104544678Y-81290000D01*
X103695322Y-81290000D01*
X102910620Y-81615034D01*
X102310034Y-82215620D01*
X101985000Y-83000322D01*
X101127000Y-83000322D01*
X101127000Y-79964561D01*
X157015000Y-79964561D01*
X157015000Y-80535439D01*
X157233466Y-81062862D01*
X157637138Y-81466534D01*
X158164561Y-81685000D01*
X158735439Y-81685000D01*
X159262862Y-81466534D01*
X159666534Y-81062862D01*
X159885000Y-80535439D01*
X159885000Y-79964561D01*
X159666534Y-79437138D01*
X159262862Y-79033466D01*
X158735439Y-78815000D01*
X158164561Y-78815000D01*
X157637138Y-79033466D01*
X157233466Y-79437138D01*
X157015000Y-79964561D01*
X101127000Y-79964561D01*
X101127000Y-77424561D01*
X113835000Y-77424561D01*
X113835000Y-77995439D01*
X114053466Y-78522862D01*
X114457138Y-78926534D01*
X114984561Y-79145000D01*
X115555439Y-79145000D01*
X116082862Y-78926534D01*
X116486534Y-78522862D01*
X116705000Y-77995439D01*
X116705000Y-77760000D01*
X117436887Y-77760000D01*
X117548260Y-78319909D01*
X117865423Y-78794577D01*
X118340091Y-79111740D01*
X118758667Y-79195000D01*
X119041333Y-79195000D01*
X119459909Y-79111740D01*
X119934577Y-78794577D01*
X120251740Y-78319909D01*
X120363113Y-77760000D01*
X120281559Y-77350000D01*
X121302560Y-77350000D01*
X121302560Y-79050000D01*
X121351843Y-79297765D01*
X121492191Y-79507809D01*
X121702235Y-79648157D01*
X121950000Y-79697440D01*
X123650000Y-79697440D01*
X123897765Y-79648157D01*
X124107809Y-79507809D01*
X124248157Y-79297765D01*
X124297440Y-79050000D01*
X124297440Y-77350000D01*
X124248157Y-77102235D01*
X124107809Y-76892191D01*
X123897765Y-76751843D01*
X123650000Y-76702560D01*
X121950000Y-76702560D01*
X121702235Y-76751843D01*
X121492191Y-76892191D01*
X121351843Y-77102235D01*
X121302560Y-77350000D01*
X120281559Y-77350000D01*
X120251740Y-77200091D01*
X119934577Y-76725423D01*
X119459909Y-76408260D01*
X119041333Y-76325000D01*
X118758667Y-76325000D01*
X118340091Y-76408260D01*
X117865423Y-76725423D01*
X117548260Y-77200091D01*
X117436887Y-77760000D01*
X116705000Y-77760000D01*
X116705000Y-77424561D01*
X116486534Y-76897138D01*
X116082862Y-76493466D01*
X115555439Y-76275000D01*
X114984561Y-76275000D01*
X114457138Y-76493466D01*
X114053466Y-76897138D01*
X113835000Y-77424561D01*
X101127000Y-77424561D01*
X101127000Y-76812745D01*
X103051861Y-76812745D01*
X103125995Y-77058864D01*
X103663223Y-77251965D01*
X104233454Y-77224778D01*
X104634005Y-77058864D01*
X104708139Y-76812745D01*
X103880000Y-75984605D01*
X103051861Y-76812745D01*
X101127000Y-76812745D01*
X101127000Y-75588223D01*
X102433035Y-75588223D01*
X102460222Y-76158454D01*
X102626136Y-76559005D01*
X102872255Y-76633139D01*
X103700395Y-75805000D01*
X104059605Y-75805000D01*
X104887745Y-76633139D01*
X104935307Y-76618813D01*
X104981843Y-76852765D01*
X105122191Y-77062809D01*
X105332235Y-77203157D01*
X105580000Y-77252440D01*
X107180000Y-77252440D01*
X107427765Y-77203157D01*
X107637809Y-77062809D01*
X107778157Y-76852765D01*
X107827440Y-76605000D01*
X107827440Y-75540000D01*
X109945908Y-75540000D01*
X110061161Y-76119418D01*
X110389375Y-76610625D01*
X110880582Y-76938839D01*
X111313744Y-77025000D01*
X111606256Y-77025000D01*
X112039418Y-76938839D01*
X112530625Y-76610625D01*
X112858839Y-76119418D01*
X112974092Y-75540000D01*
X112858839Y-74960582D01*
X112828089Y-74914561D01*
X121465000Y-74914561D01*
X121465000Y-75485439D01*
X121683466Y-76012862D01*
X122087138Y-76416534D01*
X122614561Y-76635000D01*
X123185439Y-76635000D01*
X123712862Y-76416534D01*
X123794396Y-76335000D01*
X129098217Y-76335000D01*
X129210000Y-76357235D01*
X129321783Y-76335000D01*
X129652855Y-76269146D01*
X130028289Y-76018289D01*
X130091613Y-75923518D01*
X130121608Y-75893523D01*
X130309145Y-75612854D01*
X130397235Y-75170001D01*
X130309145Y-74727146D01*
X130058288Y-74351712D01*
X129682854Y-74100855D01*
X129239999Y-74012765D01*
X128977399Y-74065000D01*
X123794396Y-74065000D01*
X123712862Y-73983466D01*
X123647701Y-73956475D01*
X123654005Y-73953864D01*
X123728139Y-73707745D01*
X122900000Y-72879605D01*
X122071861Y-73707745D01*
X122145995Y-73953864D01*
X122152746Y-73956290D01*
X122087138Y-73983466D01*
X121683466Y-74387138D01*
X121465000Y-74914561D01*
X112828089Y-74914561D01*
X112530625Y-74469375D01*
X112512381Y-74457184D01*
X112557765Y-74448157D01*
X112767809Y-74307809D01*
X112908157Y-74097765D01*
X112957440Y-73850000D01*
X112957440Y-72483223D01*
X121453035Y-72483223D01*
X121480222Y-73053454D01*
X121646136Y-73454005D01*
X121892255Y-73528139D01*
X122720395Y-72700000D01*
X123079605Y-72700000D01*
X123907745Y-73528139D01*
X124153864Y-73454005D01*
X124346965Y-72916777D01*
X124319778Y-72346546D01*
X124318956Y-72344561D01*
X149395000Y-72344561D01*
X149395000Y-72915439D01*
X149613466Y-73442862D01*
X150017138Y-73846534D01*
X150544561Y-74065000D01*
X151115439Y-74065000D01*
X151513783Y-73900000D01*
X164606887Y-73900000D01*
X164718260Y-74459909D01*
X165035423Y-74934577D01*
X165510091Y-75251740D01*
X165928667Y-75335000D01*
X166211333Y-75335000D01*
X166629909Y-75251740D01*
X167104577Y-74934577D01*
X167421740Y-74459909D01*
X167533113Y-73900000D01*
X167421740Y-73340091D01*
X167104577Y-72865423D01*
X166629909Y-72548260D01*
X166211333Y-72465000D01*
X165928667Y-72465000D01*
X165510091Y-72548260D01*
X165035423Y-72865423D01*
X164718260Y-73340091D01*
X164606887Y-73900000D01*
X151513783Y-73900000D01*
X151642862Y-73846534D01*
X152046534Y-73442862D01*
X152265000Y-72915439D01*
X152265000Y-72344561D01*
X152046534Y-71817138D01*
X151642862Y-71413466D01*
X151513784Y-71360000D01*
X153176887Y-71360000D01*
X153288260Y-71919909D01*
X153605423Y-72394577D01*
X154080091Y-72711740D01*
X154498667Y-72795000D01*
X154781333Y-72795000D01*
X155199909Y-72711740D01*
X155674577Y-72394577D01*
X155991740Y-71919909D01*
X156103113Y-71360000D01*
X155991740Y-70800091D01*
X155674577Y-70325423D01*
X155322242Y-70090000D01*
X156986887Y-70090000D01*
X157098260Y-70649909D01*
X157415423Y-71124577D01*
X157890091Y-71441740D01*
X158308667Y-71525000D01*
X158591333Y-71525000D01*
X159009909Y-71441740D01*
X159484577Y-71124577D01*
X159801740Y-70649909D01*
X159913113Y-70090000D01*
X159801740Y-69530091D01*
X159484577Y-69055423D01*
X159009909Y-68738260D01*
X158591333Y-68655000D01*
X158308667Y-68655000D01*
X158079837Y-68700517D01*
X158375183Y-68431358D01*
X158621486Y-67906892D01*
X158500819Y-67677000D01*
X157307000Y-67677000D01*
X157307000Y-68870155D01*
X157522495Y-68983879D01*
X157415423Y-69055423D01*
X157098260Y-69530091D01*
X156986887Y-70090000D01*
X155322242Y-70090000D01*
X155199909Y-70008260D01*
X154781333Y-69925000D01*
X154498667Y-69925000D01*
X154080091Y-70008260D01*
X153605423Y-70325423D01*
X153288260Y-70800091D01*
X153176887Y-71360000D01*
X151513784Y-71360000D01*
X151115439Y-71195000D01*
X150544561Y-71195000D01*
X150017138Y-71413466D01*
X149613466Y-71817138D01*
X149395000Y-72344561D01*
X124318956Y-72344561D01*
X124153864Y-71945995D01*
X123907745Y-71871861D01*
X123079605Y-72700000D01*
X122720395Y-72700000D01*
X121892255Y-71871861D01*
X121646136Y-71945995D01*
X121453035Y-72483223D01*
X112957440Y-72483223D01*
X112957440Y-72150000D01*
X112908157Y-71902235D01*
X112767852Y-71692255D01*
X122071861Y-71692255D01*
X122900000Y-72520395D01*
X123728139Y-71692255D01*
X123654005Y-71446136D01*
X123116777Y-71253035D01*
X122546546Y-71280222D01*
X122145995Y-71446136D01*
X122071861Y-71692255D01*
X112767852Y-71692255D01*
X112767809Y-71692191D01*
X112557765Y-71551843D01*
X112310000Y-71502560D01*
X110610000Y-71502560D01*
X110362235Y-71551843D01*
X110152191Y-71692191D01*
X110011843Y-71902235D01*
X109962560Y-72150000D01*
X109962560Y-73850000D01*
X110011843Y-74097765D01*
X110152191Y-74307809D01*
X110362235Y-74448157D01*
X110407619Y-74457184D01*
X110389375Y-74469375D01*
X110061161Y-74960582D01*
X109945908Y-75540000D01*
X107827440Y-75540000D01*
X107827440Y-75005000D01*
X107778157Y-74757235D01*
X107637809Y-74547191D01*
X107427765Y-74406843D01*
X107180000Y-74357560D01*
X105580000Y-74357560D01*
X105332235Y-74406843D01*
X105122191Y-74547191D01*
X104981843Y-74757235D01*
X104935307Y-74991187D01*
X104887745Y-74976861D01*
X104059605Y-75805000D01*
X103700395Y-75805000D01*
X102872255Y-74976861D01*
X102626136Y-75050995D01*
X102433035Y-75588223D01*
X101127000Y-75588223D01*
X101127000Y-74797255D01*
X103051861Y-74797255D01*
X103880000Y-75625395D01*
X104708139Y-74797255D01*
X104634005Y-74551136D01*
X104096777Y-74358035D01*
X103526546Y-74385222D01*
X103125995Y-74551136D01*
X103051861Y-74797255D01*
X101127000Y-74797255D01*
X101127000Y-64814561D01*
X112465000Y-64814561D01*
X112465000Y-65385439D01*
X112683466Y-65912862D01*
X113087138Y-66316534D01*
X113614561Y-66535000D01*
X114185439Y-66535000D01*
X114239861Y-66512458D01*
X114235423Y-66515423D01*
X113918260Y-66990091D01*
X113806887Y-67550000D01*
X113918260Y-68109909D01*
X114235423Y-68584577D01*
X114710091Y-68901740D01*
X115128667Y-68985000D01*
X115411333Y-68985000D01*
X115829909Y-68901740D01*
X116304577Y-68584577D01*
X116621740Y-68109909D01*
X116733113Y-67550000D01*
X116686282Y-67314561D01*
X117465000Y-67314561D01*
X117465000Y-67885439D01*
X117683466Y-68412862D01*
X118087138Y-68816534D01*
X118614561Y-69035000D01*
X119185439Y-69035000D01*
X119712862Y-68816534D01*
X120116534Y-68412862D01*
X120335000Y-67885439D01*
X120335000Y-67314561D01*
X120116534Y-66787138D01*
X120029396Y-66700000D01*
X153142560Y-66700000D01*
X153142560Y-68400000D01*
X153191843Y-68647765D01*
X153332191Y-68857809D01*
X153542235Y-68998157D01*
X153790000Y-69047440D01*
X155490000Y-69047440D01*
X155737765Y-68998157D01*
X155947809Y-68857809D01*
X156088157Y-68647765D01*
X156108739Y-68544292D01*
X156413076Y-68821645D01*
X156823110Y-68991476D01*
X157053000Y-68870155D01*
X157053000Y-67677000D01*
X157033000Y-67677000D01*
X157033000Y-67423000D01*
X157053000Y-67423000D01*
X157053000Y-66229845D01*
X157307000Y-66229845D01*
X157307000Y-67423000D01*
X158500819Y-67423000D01*
X158621486Y-67193108D01*
X158375183Y-66668642D01*
X157946924Y-66278355D01*
X157536890Y-66108524D01*
X157307000Y-66229845D01*
X157053000Y-66229845D01*
X156823110Y-66108524D01*
X156413076Y-66278355D01*
X156108739Y-66555708D01*
X156088157Y-66452235D01*
X155947809Y-66242191D01*
X155737765Y-66101843D01*
X155490000Y-66052560D01*
X153790000Y-66052560D01*
X153542235Y-66101843D01*
X153332191Y-66242191D01*
X153191843Y-66452235D01*
X153142560Y-66700000D01*
X120029396Y-66700000D01*
X119712862Y-66383466D01*
X119185439Y-66165000D01*
X118614561Y-66165000D01*
X118087138Y-66383466D01*
X117683466Y-66787138D01*
X117465000Y-67314561D01*
X116686282Y-67314561D01*
X116621740Y-66990091D01*
X116304577Y-66515423D01*
X115829909Y-66198260D01*
X115411333Y-66115000D01*
X115128667Y-66115000D01*
X114861192Y-66168204D01*
X115116534Y-65912862D01*
X115335000Y-65385439D01*
X115335000Y-64814561D01*
X115116534Y-64287138D01*
X114712862Y-63883466D01*
X114647701Y-63856475D01*
X114654005Y-63853864D01*
X114728139Y-63607745D01*
X113900000Y-62779605D01*
X113071861Y-63607745D01*
X113145995Y-63853864D01*
X113152746Y-63856290D01*
X113087138Y-63883466D01*
X112683466Y-64287138D01*
X112465000Y-64814561D01*
X101127000Y-64814561D01*
X101127000Y-62383223D01*
X112453035Y-62383223D01*
X112480222Y-62953454D01*
X112646136Y-63354005D01*
X112892255Y-63428139D01*
X113720395Y-62600000D01*
X114079605Y-62600000D01*
X114907745Y-63428139D01*
X115153864Y-63354005D01*
X115346965Y-62816777D01*
X115319778Y-62246546D01*
X115294596Y-62185750D01*
X115615000Y-62185750D01*
X115615000Y-62876310D01*
X115711673Y-63109699D01*
X115890302Y-63288327D01*
X116123691Y-63385000D01*
X116814250Y-63385000D01*
X116973000Y-63226250D01*
X116973000Y-62027000D01*
X117227000Y-62027000D01*
X117227000Y-63226250D01*
X117385750Y-63385000D01*
X118076309Y-63385000D01*
X118309698Y-63288327D01*
X118488327Y-63109699D01*
X118585000Y-62876310D01*
X118585000Y-62185750D01*
X118426250Y-62027000D01*
X117227000Y-62027000D01*
X116973000Y-62027000D01*
X115773750Y-62027000D01*
X115615000Y-62185750D01*
X115294596Y-62185750D01*
X115153864Y-61845995D01*
X114907745Y-61771861D01*
X114079605Y-62600000D01*
X113720395Y-62600000D01*
X112892255Y-61771861D01*
X112646136Y-61845995D01*
X112453035Y-62383223D01*
X101127000Y-62383223D01*
X101127000Y-61592255D01*
X113071861Y-61592255D01*
X113900000Y-62420395D01*
X114728139Y-61592255D01*
X114654005Y-61346136D01*
X114116777Y-61153035D01*
X113546546Y-61180222D01*
X113145995Y-61346136D01*
X113071861Y-61592255D01*
X101127000Y-61592255D01*
X101127000Y-60923690D01*
X115615000Y-60923690D01*
X115615000Y-61614250D01*
X115773750Y-61773000D01*
X116973000Y-61773000D01*
X116973000Y-60573750D01*
X117227000Y-60573750D01*
X117227000Y-61773000D01*
X118426250Y-61773000D01*
X118579250Y-61620000D01*
X152507560Y-61620000D01*
X152507560Y-63320000D01*
X152556843Y-63567765D01*
X152697191Y-63777809D01*
X152907235Y-63918157D01*
X153155000Y-63967440D01*
X154855000Y-63967440D01*
X155102765Y-63918157D01*
X155312809Y-63777809D01*
X155453157Y-63567765D01*
X155462184Y-63522381D01*
X155474375Y-63540625D01*
X155965582Y-63868839D01*
X156398744Y-63955000D01*
X156691256Y-63955000D01*
X157124418Y-63868839D01*
X157615625Y-63540625D01*
X157943839Y-63049418D01*
X158059092Y-62470000D01*
X157943839Y-61890582D01*
X157615625Y-61399375D01*
X157124418Y-61071161D01*
X156691256Y-60985000D01*
X156398744Y-60985000D01*
X155965582Y-61071161D01*
X155474375Y-61399375D01*
X155462184Y-61417619D01*
X155453157Y-61372235D01*
X155312809Y-61162191D01*
X155102765Y-61021843D01*
X154855000Y-60972560D01*
X153155000Y-60972560D01*
X152907235Y-61021843D01*
X152697191Y-61162191D01*
X152556843Y-61372235D01*
X152507560Y-61620000D01*
X118579250Y-61620000D01*
X118585000Y-61614250D01*
X118585000Y-60923690D01*
X118488327Y-60690301D01*
X118309698Y-60511673D01*
X118076309Y-60415000D01*
X117385750Y-60415000D01*
X117227000Y-60573750D01*
X116973000Y-60573750D01*
X116814250Y-60415000D01*
X116123691Y-60415000D01*
X115890302Y-60511673D01*
X115711673Y-60690301D01*
X115615000Y-60923690D01*
X101127000Y-60923690D01*
X101127000Y-60127000D01*
X177873000Y-60127000D01*
X177873000Y-91873000D01*
X177873000Y-91873000D01*
G37*
X177873000Y-91873000D02*
X101127000Y-91873000D01*
X101127000Y-87870000D01*
X134126887Y-87870000D01*
X134238260Y-88429909D01*
X134555423Y-88904577D01*
X135030091Y-89221740D01*
X135448667Y-89305000D01*
X135731333Y-89305000D01*
X136149909Y-89221740D01*
X136624577Y-88904577D01*
X136880947Y-88520892D01*
X136977611Y-88725134D01*
X137392577Y-89101041D01*
X137780961Y-89261904D01*
X138003000Y-89139915D01*
X138003000Y-87997000D01*
X137983000Y-87997000D01*
X137983000Y-87743000D01*
X138003000Y-87743000D01*
X138003000Y-86600085D01*
X138257000Y-86600085D01*
X138257000Y-87743000D01*
X138277000Y-87743000D01*
X138277000Y-87997000D01*
X138257000Y-87997000D01*
X138257000Y-89139915D01*
X138479039Y-89261904D01*
X138867423Y-89101041D01*
X139240987Y-88762639D01*
X139271843Y-88917765D01*
X139412191Y-89127809D01*
X139622235Y-89268157D01*
X139870000Y-89317440D01*
X141470000Y-89317440D01*
X141717765Y-89268157D01*
X141927809Y-89127809D01*
X142068157Y-88917765D01*
X142117440Y-88670000D01*
X142117440Y-87870000D01*
X143016887Y-87870000D01*
X143128260Y-88429909D01*
X143445423Y-88904577D01*
X143920091Y-89221740D01*
X144338667Y-89305000D01*
X144621333Y-89305000D01*
X145039909Y-89221740D01*
X145514577Y-88904577D01*
X145770947Y-88520892D01*
X145867611Y-88725134D01*
X146282577Y-89101041D01*
X146670961Y-89261904D01*
X146893000Y-89139915D01*
X146893000Y-87997000D01*
X146873000Y-87997000D01*
X146873000Y-87743000D01*
X146893000Y-87743000D01*
X146893000Y-86600085D01*
X147147000Y-86600085D01*
X147147000Y-87743000D01*
X147167000Y-87743000D01*
X147167000Y-87997000D01*
X147147000Y-87997000D01*
X147147000Y-89139915D01*
X147369039Y-89261904D01*
X147757423Y-89101041D01*
X148130987Y-88762639D01*
X148161843Y-88917765D01*
X148302191Y-89127809D01*
X148512235Y-89268157D01*
X148760000Y-89317440D01*
X150360000Y-89317440D01*
X150607765Y-89268157D01*
X150817809Y-89127809D01*
X150958157Y-88917765D01*
X151007440Y-88670000D01*
X151007440Y-87870000D01*
X154446887Y-87870000D01*
X154558260Y-88429909D01*
X154875423Y-88904577D01*
X155350091Y-89221740D01*
X155768667Y-89305000D01*
X156051333Y-89305000D01*
X156469909Y-89221740D01*
X156944577Y-88904577D01*
X157200947Y-88520892D01*
X157297611Y-88725134D01*
X157712577Y-89101041D01*
X158100961Y-89261904D01*
X158323000Y-89139915D01*
X158323000Y-87997000D01*
X158303000Y-87997000D01*
X158303000Y-87743000D01*
X158323000Y-87743000D01*
X158323000Y-86600085D01*
X158577000Y-86600085D01*
X158577000Y-87743000D01*
X158597000Y-87743000D01*
X158597000Y-87997000D01*
X158577000Y-87997000D01*
X158577000Y-89139915D01*
X158799039Y-89261904D01*
X159187423Y-89101041D01*
X159560987Y-88762639D01*
X159591843Y-88917765D01*
X159732191Y-89127809D01*
X159942235Y-89268157D01*
X160190000Y-89317440D01*
X161790000Y-89317440D01*
X162037765Y-89268157D01*
X162247809Y-89127809D01*
X162388157Y-88917765D01*
X162437440Y-88670000D01*
X162437440Y-87870000D01*
X163336887Y-87870000D01*
X163448260Y-88429909D01*
X163765423Y-88904577D01*
X164240091Y-89221740D01*
X164658667Y-89305000D01*
X164941333Y-89305000D01*
X165359909Y-89221740D01*
X165834577Y-88904577D01*
X166090947Y-88520892D01*
X166187611Y-88725134D01*
X166602577Y-89101041D01*
X166990961Y-89261904D01*
X167213000Y-89139915D01*
X167213000Y-87997000D01*
X167193000Y-87997000D01*
X167193000Y-87743000D01*
X167213000Y-87743000D01*
X167213000Y-86600085D01*
X167467000Y-86600085D01*
X167467000Y-87743000D01*
X167487000Y-87743000D01*
X167487000Y-87997000D01*
X167467000Y-87997000D01*
X167467000Y-89139915D01*
X167689039Y-89261904D01*
X168077423Y-89101041D01*
X168450987Y-88762639D01*
X168481843Y-88917765D01*
X168622191Y-89127809D01*
X168832235Y-89268157D01*
X169080000Y-89317440D01*
X170680000Y-89317440D01*
X170927765Y-89268157D01*
X171137809Y-89127809D01*
X171278157Y-88917765D01*
X171327440Y-88670000D01*
X171327440Y-87070000D01*
X171278157Y-86822235D01*
X171137809Y-86612191D01*
X170927765Y-86471843D01*
X170680000Y-86422560D01*
X169080000Y-86422560D01*
X168832235Y-86471843D01*
X168622191Y-86612191D01*
X168481843Y-86822235D01*
X168450987Y-86977361D01*
X168077423Y-86638959D01*
X167689039Y-86478096D01*
X167467000Y-86600085D01*
X167213000Y-86600085D01*
X166990961Y-86478096D01*
X166602577Y-86638959D01*
X166187611Y-87014866D01*
X166090947Y-87219108D01*
X165834577Y-86835423D01*
X165359909Y-86518260D01*
X164941333Y-86435000D01*
X164658667Y-86435000D01*
X164240091Y-86518260D01*
X163765423Y-86835423D01*
X163448260Y-87310091D01*
X163336887Y-87870000D01*
X162437440Y-87870000D01*
X162437440Y-87070000D01*
X162388157Y-86822235D01*
X162247809Y-86612191D01*
X162037765Y-86471843D01*
X161904134Y-86445262D01*
X162206534Y-86142862D01*
X162425000Y-85615439D01*
X162425000Y-85044561D01*
X162206534Y-84517138D01*
X161802862Y-84113466D01*
X161275439Y-83895000D01*
X160704561Y-83895000D01*
X160177138Y-84113466D01*
X159773466Y-84517138D01*
X159555000Y-85044561D01*
X159555000Y-85615439D01*
X159773466Y-86142862D01*
X160075866Y-86445262D01*
X159942235Y-86471843D01*
X159732191Y-86612191D01*
X159591843Y-86822235D01*
X159560987Y-86977361D01*
X159187423Y-86638959D01*
X158799039Y-86478096D01*
X158577000Y-86600085D01*
X158323000Y-86600085D01*
X158100961Y-86478096D01*
X157712577Y-86638959D01*
X157297611Y-87014866D01*
X157200947Y-87219108D01*
X156944577Y-86835423D01*
X156469909Y-86518260D01*
X156051333Y-86435000D01*
X155768667Y-86435000D01*
X155350091Y-86518260D01*
X154875423Y-86835423D01*
X154558260Y-87310091D01*
X154446887Y-87870000D01*
X151007440Y-87870000D01*
X151007440Y-87070000D01*
X150958157Y-86822235D01*
X150919913Y-86765000D01*
X150971333Y-86765000D01*
X151389909Y-86681740D01*
X151864577Y-86364577D01*
X152181740Y-85889909D01*
X152293113Y-85330000D01*
X152181740Y-84770091D01*
X151864577Y-84295423D01*
X151497363Y-84050059D01*
X151567423Y-84021041D01*
X151839513Y-83774561D01*
X164635000Y-83774561D01*
X164635000Y-84345439D01*
X164853466Y-84872862D01*
X165257138Y-85276534D01*
X165784561Y-85495000D01*
X166355439Y-85495000D01*
X166882862Y-85276534D01*
X167286534Y-84872862D01*
X167505000Y-84345439D01*
X167505000Y-83774561D01*
X167286534Y-83247138D01*
X166882862Y-82843466D01*
X166355439Y-82625000D01*
X165784561Y-82625000D01*
X165257138Y-82843466D01*
X164853466Y-83247138D01*
X164635000Y-83774561D01*
X151839513Y-83774561D01*
X151982389Y-83645134D01*
X152221914Y-83139041D01*
X152100629Y-82917000D01*
X150957000Y-82917000D01*
X150957000Y-82937000D01*
X150703000Y-82937000D01*
X150703000Y-82917000D01*
X149559371Y-82917000D01*
X149438086Y-83139041D01*
X149677611Y-83645134D01*
X150092577Y-84021041D01*
X150162637Y-84050059D01*
X149795423Y-84295423D01*
X149478260Y-84770091D01*
X149366887Y-85330000D01*
X149478260Y-85889909D01*
X149795423Y-86364577D01*
X149882201Y-86422560D01*
X148760000Y-86422560D01*
X148512235Y-86471843D01*
X148302191Y-86612191D01*
X148161843Y-86822235D01*
X148130987Y-86977361D01*
X147757423Y-86638959D01*
X147369039Y-86478096D01*
X147147000Y-86600085D01*
X146893000Y-86600085D01*
X146670961Y-86478096D01*
X146282577Y-86638959D01*
X145867611Y-87014866D01*
X145770947Y-87219108D01*
X145514577Y-86835423D01*
X145039909Y-86518260D01*
X144621333Y-86435000D01*
X144338667Y-86435000D01*
X143920091Y-86518260D01*
X143445423Y-86835423D01*
X143128260Y-87310091D01*
X143016887Y-87870000D01*
X142117440Y-87870000D01*
X142117440Y-87070000D01*
X142068157Y-86822235D01*
X142029913Y-86765000D01*
X142225439Y-86765000D01*
X142752862Y-86546534D01*
X143156534Y-86142862D01*
X143375000Y-85615439D01*
X143375000Y-85044561D01*
X143156534Y-84517138D01*
X142752862Y-84113466D01*
X142225439Y-83895000D01*
X141654561Y-83895000D01*
X141127138Y-84113466D01*
X140723466Y-84517138D01*
X140505000Y-85044561D01*
X140505000Y-85615439D01*
X140723466Y-86142862D01*
X141003164Y-86422560D01*
X139870000Y-86422560D01*
X139622235Y-86471843D01*
X139412191Y-86612191D01*
X139271843Y-86822235D01*
X139240987Y-86977361D01*
X138867423Y-86638959D01*
X138479039Y-86478096D01*
X138257000Y-86600085D01*
X138003000Y-86600085D01*
X137780961Y-86478096D01*
X137392577Y-86638959D01*
X136977611Y-87014866D01*
X136880947Y-87219108D01*
X136624577Y-86835423D01*
X136149909Y-86518260D01*
X135731333Y-86435000D01*
X135448667Y-86435000D01*
X135030091Y-86518260D01*
X134555423Y-86835423D01*
X134238260Y-87310091D01*
X134126887Y-87870000D01*
X101127000Y-87870000D01*
X101127000Y-83000322D01*
X101985000Y-83000322D01*
X101985000Y-83849678D01*
X102310034Y-84634380D01*
X102910620Y-85234966D01*
X103695322Y-85560000D01*
X104544678Y-85560000D01*
X105329380Y-85234966D01*
X105929966Y-84634380D01*
X106255000Y-83849678D01*
X106255000Y-83710750D01*
X119485000Y-83710750D01*
X119485000Y-85051309D01*
X119581673Y-85284698D01*
X119760301Y-85463327D01*
X119993690Y-85560000D01*
X121334250Y-85560000D01*
X121493000Y-85401250D01*
X121493000Y-83552000D01*
X121747000Y-83552000D01*
X121747000Y-85401250D01*
X121905750Y-85560000D01*
X123246310Y-85560000D01*
X123479699Y-85463327D01*
X123613025Y-85330000D01*
X130316887Y-85330000D01*
X130428260Y-85889909D01*
X130745423Y-86364577D01*
X131220091Y-86681740D01*
X131638667Y-86765000D01*
X131921333Y-86765000D01*
X132339909Y-86681740D01*
X132814577Y-86364577D01*
X133131740Y-85889909D01*
X133243113Y-85330000D01*
X133131740Y-84770091D01*
X132814577Y-84295423D01*
X132339909Y-83978260D01*
X131921333Y-83895000D01*
X131638667Y-83895000D01*
X131220091Y-83978260D01*
X130745423Y-84295423D01*
X130428260Y-84770091D01*
X130316887Y-85330000D01*
X123613025Y-85330000D01*
X123658327Y-85284698D01*
X123755000Y-85051309D01*
X123755000Y-83710750D01*
X123596250Y-83552000D01*
X121747000Y-83552000D01*
X121493000Y-83552000D01*
X119643750Y-83552000D01*
X119485000Y-83710750D01*
X106255000Y-83710750D01*
X106255000Y-83000322D01*
X105929966Y-82215620D01*
X105513037Y-81798691D01*
X119485000Y-81798691D01*
X119485000Y-83139250D01*
X119643750Y-83298000D01*
X121493000Y-83298000D01*
X121493000Y-81448750D01*
X121747000Y-81448750D01*
X121747000Y-83298000D01*
X123596250Y-83298000D01*
X123755000Y-83139250D01*
X123755000Y-81798691D01*
X123658327Y-81565302D01*
X123613026Y-81520000D01*
X130316887Y-81520000D01*
X130428260Y-82079909D01*
X130745423Y-82554577D01*
X131220091Y-82871740D01*
X131638667Y-82955000D01*
X131921333Y-82955000D01*
X132339909Y-82871740D01*
X132814577Y-82554577D01*
X133131740Y-82079909D01*
X133243113Y-81520000D01*
X133186336Y-81234561D01*
X140505000Y-81234561D01*
X140505000Y-81805439D01*
X140723466Y-82332862D01*
X141127138Y-82736534D01*
X141654561Y-82955000D01*
X142225439Y-82955000D01*
X142752862Y-82736534D01*
X143048437Y-82440959D01*
X149438086Y-82440959D01*
X149559371Y-82663000D01*
X150703000Y-82663000D01*
X150703000Y-81520085D01*
X150957000Y-81520085D01*
X150957000Y-82663000D01*
X152100629Y-82663000D01*
X152221914Y-82440959D01*
X151982389Y-81934866D01*
X151567423Y-81558959D01*
X151179039Y-81398096D01*
X150957000Y-81520085D01*
X150703000Y-81520085D01*
X150480961Y-81398096D01*
X150092577Y-81558959D01*
X149677611Y-81934866D01*
X149438086Y-82440959D01*
X143048437Y-82440959D01*
X143156534Y-82332862D01*
X143375000Y-81805439D01*
X143375000Y-81234561D01*
X153205000Y-81234561D01*
X153205000Y-81805439D01*
X153423466Y-82332862D01*
X153827138Y-82736534D01*
X154354561Y-82955000D01*
X154925439Y-82955000D01*
X155452862Y-82736534D01*
X155856534Y-82332862D01*
X156075000Y-81805439D01*
X156075000Y-81234561D01*
X155856534Y-80707138D01*
X155452862Y-80303466D01*
X154925439Y-80085000D01*
X154354561Y-80085000D01*
X153827138Y-80303466D01*
X153423466Y-80707138D01*
X153205000Y-81234561D01*
X143375000Y-81234561D01*
X143156534Y-80707138D01*
X142752862Y-80303466D01*
X142225439Y-80085000D01*
X141654561Y-80085000D01*
X141127138Y-80303466D01*
X140723466Y-80707138D01*
X140505000Y-81234561D01*
X133186336Y-81234561D01*
X133131740Y-80960091D01*
X132814577Y-80485423D01*
X132339909Y-80168260D01*
X131921333Y-80085000D01*
X131638667Y-80085000D01*
X131220091Y-80168260D01*
X130745423Y-80485423D01*
X130428260Y-80960091D01*
X130316887Y-81520000D01*
X123613026Y-81520000D01*
X123479699Y-81386673D01*
X123246310Y-81290000D01*
X121905750Y-81290000D01*
X121747000Y-81448750D01*
X121493000Y-81448750D01*
X121334250Y-81290000D01*
X119993690Y-81290000D01*
X119760301Y-81386673D01*
X119581673Y-81565302D01*
X119485000Y-81798691D01*
X105513037Y-81798691D01*
X105329380Y-81615034D01*
X104544678Y-81290000D01*
X103695322Y-81290000D01*
X102910620Y-81615034D01*
X102310034Y-82215620D01*
X101985000Y-83000322D01*
X101127000Y-83000322D01*
X101127000Y-79964561D01*
X157015000Y-79964561D01*
X157015000Y-80535439D01*
X157233466Y-81062862D01*
X157637138Y-81466534D01*
X158164561Y-81685000D01*
X158735439Y-81685000D01*
X159262862Y-81466534D01*
X159666534Y-81062862D01*
X159885000Y-80535439D01*
X159885000Y-79964561D01*
X159666534Y-79437138D01*
X159262862Y-79033466D01*
X158735439Y-78815000D01*
X158164561Y-78815000D01*
X157637138Y-79033466D01*
X157233466Y-79437138D01*
X157015000Y-79964561D01*
X101127000Y-79964561D01*
X101127000Y-77424561D01*
X113835000Y-77424561D01*
X113835000Y-77995439D01*
X114053466Y-78522862D01*
X114457138Y-78926534D01*
X114984561Y-79145000D01*
X115555439Y-79145000D01*
X116082862Y-78926534D01*
X116486534Y-78522862D01*
X116705000Y-77995439D01*
X116705000Y-77760000D01*
X117436887Y-77760000D01*
X117548260Y-78319909D01*
X117865423Y-78794577D01*
X118340091Y-79111740D01*
X118758667Y-79195000D01*
X119041333Y-79195000D01*
X119459909Y-79111740D01*
X119934577Y-78794577D01*
X120251740Y-78319909D01*
X120363113Y-77760000D01*
X120281559Y-77350000D01*
X121302560Y-77350000D01*
X121302560Y-79050000D01*
X121351843Y-79297765D01*
X121492191Y-79507809D01*
X121702235Y-79648157D01*
X121950000Y-79697440D01*
X123650000Y-79697440D01*
X123897765Y-79648157D01*
X124107809Y-79507809D01*
X124248157Y-79297765D01*
X124297440Y-79050000D01*
X124297440Y-77350000D01*
X124248157Y-77102235D01*
X124107809Y-76892191D01*
X123897765Y-76751843D01*
X123650000Y-76702560D01*
X121950000Y-76702560D01*
X121702235Y-76751843D01*
X121492191Y-76892191D01*
X121351843Y-77102235D01*
X121302560Y-77350000D01*
X120281559Y-77350000D01*
X120251740Y-77200091D01*
X119934577Y-76725423D01*
X119459909Y-76408260D01*
X119041333Y-76325000D01*
X118758667Y-76325000D01*
X118340091Y-76408260D01*
X117865423Y-76725423D01*
X117548260Y-77200091D01*
X117436887Y-77760000D01*
X116705000Y-77760000D01*
X116705000Y-77424561D01*
X116486534Y-76897138D01*
X116082862Y-76493466D01*
X115555439Y-76275000D01*
X114984561Y-76275000D01*
X114457138Y-76493466D01*
X114053466Y-76897138D01*
X113835000Y-77424561D01*
X101127000Y-77424561D01*
X101127000Y-76812745D01*
X103051861Y-76812745D01*
X103125995Y-77058864D01*
X103663223Y-77251965D01*
X104233454Y-77224778D01*
X104634005Y-77058864D01*
X104708139Y-76812745D01*
X103880000Y-75984605D01*
X103051861Y-76812745D01*
X101127000Y-76812745D01*
X101127000Y-75588223D01*
X102433035Y-75588223D01*
X102460222Y-76158454D01*
X102626136Y-76559005D01*
X102872255Y-76633139D01*
X103700395Y-75805000D01*
X104059605Y-75805000D01*
X104887745Y-76633139D01*
X104935307Y-76618813D01*
X104981843Y-76852765D01*
X105122191Y-77062809D01*
X105332235Y-77203157D01*
X105580000Y-77252440D01*
X107180000Y-77252440D01*
X107427765Y-77203157D01*
X107637809Y-77062809D01*
X107778157Y-76852765D01*
X107827440Y-76605000D01*
X107827440Y-75540000D01*
X109945908Y-75540000D01*
X110061161Y-76119418D01*
X110389375Y-76610625D01*
X110880582Y-76938839D01*
X111313744Y-77025000D01*
X111606256Y-77025000D01*
X112039418Y-76938839D01*
X112530625Y-76610625D01*
X112858839Y-76119418D01*
X112974092Y-75540000D01*
X112858839Y-74960582D01*
X112828089Y-74914561D01*
X121465000Y-74914561D01*
X121465000Y-75485439D01*
X121683466Y-76012862D01*
X122087138Y-76416534D01*
X122614561Y-76635000D01*
X123185439Y-76635000D01*
X123712862Y-76416534D01*
X123794396Y-76335000D01*
X129098217Y-76335000D01*
X129210000Y-76357235D01*
X129321783Y-76335000D01*
X129652855Y-76269146D01*
X130028289Y-76018289D01*
X130091613Y-75923518D01*
X130121608Y-75893523D01*
X130309145Y-75612854D01*
X130397235Y-75170001D01*
X130309145Y-74727146D01*
X130058288Y-74351712D01*
X129682854Y-74100855D01*
X129239999Y-74012765D01*
X128977399Y-74065000D01*
X123794396Y-74065000D01*
X123712862Y-73983466D01*
X123647701Y-73956475D01*
X123654005Y-73953864D01*
X123728139Y-73707745D01*
X122900000Y-72879605D01*
X122071861Y-73707745D01*
X122145995Y-73953864D01*
X122152746Y-73956290D01*
X122087138Y-73983466D01*
X121683466Y-74387138D01*
X121465000Y-74914561D01*
X112828089Y-74914561D01*
X112530625Y-74469375D01*
X112512381Y-74457184D01*
X112557765Y-74448157D01*
X112767809Y-74307809D01*
X112908157Y-74097765D01*
X112957440Y-73850000D01*
X112957440Y-72483223D01*
X121453035Y-72483223D01*
X121480222Y-73053454D01*
X121646136Y-73454005D01*
X121892255Y-73528139D01*
X122720395Y-72700000D01*
X123079605Y-72700000D01*
X123907745Y-73528139D01*
X124153864Y-73454005D01*
X124346965Y-72916777D01*
X124319778Y-72346546D01*
X124318956Y-72344561D01*
X149395000Y-72344561D01*
X149395000Y-72915439D01*
X149613466Y-73442862D01*
X150017138Y-73846534D01*
X150544561Y-74065000D01*
X151115439Y-74065000D01*
X151513783Y-73900000D01*
X164606887Y-73900000D01*
X164718260Y-74459909D01*
X165035423Y-74934577D01*
X165510091Y-75251740D01*
X165928667Y-75335000D01*
X166211333Y-75335000D01*
X166629909Y-75251740D01*
X167104577Y-74934577D01*
X167421740Y-74459909D01*
X167533113Y-73900000D01*
X167421740Y-73340091D01*
X167104577Y-72865423D01*
X166629909Y-72548260D01*
X166211333Y-72465000D01*
X165928667Y-72465000D01*
X165510091Y-72548260D01*
X165035423Y-72865423D01*
X164718260Y-73340091D01*
X164606887Y-73900000D01*
X151513783Y-73900000D01*
X151642862Y-73846534D01*
X152046534Y-73442862D01*
X152265000Y-72915439D01*
X152265000Y-72344561D01*
X152046534Y-71817138D01*
X151642862Y-71413466D01*
X151513784Y-71360000D01*
X153176887Y-71360000D01*
X153288260Y-71919909D01*
X153605423Y-72394577D01*
X154080091Y-72711740D01*
X154498667Y-72795000D01*
X154781333Y-72795000D01*
X155199909Y-72711740D01*
X155674577Y-72394577D01*
X155991740Y-71919909D01*
X156103113Y-71360000D01*
X155991740Y-70800091D01*
X155674577Y-70325423D01*
X155322242Y-70090000D01*
X156986887Y-70090000D01*
X157098260Y-70649909D01*
X157415423Y-71124577D01*
X157890091Y-71441740D01*
X158308667Y-71525000D01*
X158591333Y-71525000D01*
X159009909Y-71441740D01*
X159484577Y-71124577D01*
X159801740Y-70649909D01*
X159913113Y-70090000D01*
X159801740Y-69530091D01*
X159484577Y-69055423D01*
X159009909Y-68738260D01*
X158591333Y-68655000D01*
X158308667Y-68655000D01*
X158079837Y-68700517D01*
X158375183Y-68431358D01*
X158621486Y-67906892D01*
X158500819Y-67677000D01*
X157307000Y-67677000D01*
X157307000Y-68870155D01*
X157522495Y-68983879D01*
X157415423Y-69055423D01*
X157098260Y-69530091D01*
X156986887Y-70090000D01*
X155322242Y-70090000D01*
X155199909Y-70008260D01*
X154781333Y-69925000D01*
X154498667Y-69925000D01*
X154080091Y-70008260D01*
X153605423Y-70325423D01*
X153288260Y-70800091D01*
X153176887Y-71360000D01*
X151513784Y-71360000D01*
X151115439Y-71195000D01*
X150544561Y-71195000D01*
X150017138Y-71413466D01*
X149613466Y-71817138D01*
X149395000Y-72344561D01*
X124318956Y-72344561D01*
X124153864Y-71945995D01*
X123907745Y-71871861D01*
X123079605Y-72700000D01*
X122720395Y-72700000D01*
X121892255Y-71871861D01*
X121646136Y-71945995D01*
X121453035Y-72483223D01*
X112957440Y-72483223D01*
X112957440Y-72150000D01*
X112908157Y-71902235D01*
X112767852Y-71692255D01*
X122071861Y-71692255D01*
X122900000Y-72520395D01*
X123728139Y-71692255D01*
X123654005Y-71446136D01*
X123116777Y-71253035D01*
X122546546Y-71280222D01*
X122145995Y-71446136D01*
X122071861Y-71692255D01*
X112767852Y-71692255D01*
X112767809Y-71692191D01*
X112557765Y-71551843D01*
X112310000Y-71502560D01*
X110610000Y-71502560D01*
X110362235Y-71551843D01*
X110152191Y-71692191D01*
X110011843Y-71902235D01*
X109962560Y-72150000D01*
X109962560Y-73850000D01*
X110011843Y-74097765D01*
X110152191Y-74307809D01*
X110362235Y-74448157D01*
X110407619Y-74457184D01*
X110389375Y-74469375D01*
X110061161Y-74960582D01*
X109945908Y-75540000D01*
X107827440Y-75540000D01*
X107827440Y-75005000D01*
X107778157Y-74757235D01*
X107637809Y-74547191D01*
X107427765Y-74406843D01*
X107180000Y-74357560D01*
X105580000Y-74357560D01*
X105332235Y-74406843D01*
X105122191Y-74547191D01*
X104981843Y-74757235D01*
X104935307Y-74991187D01*
X104887745Y-74976861D01*
X104059605Y-75805000D01*
X103700395Y-75805000D01*
X102872255Y-74976861D01*
X102626136Y-75050995D01*
X102433035Y-75588223D01*
X101127000Y-75588223D01*
X101127000Y-74797255D01*
X103051861Y-74797255D01*
X103880000Y-75625395D01*
X104708139Y-74797255D01*
X104634005Y-74551136D01*
X104096777Y-74358035D01*
X103526546Y-74385222D01*
X103125995Y-74551136D01*
X103051861Y-74797255D01*
X101127000Y-74797255D01*
X101127000Y-64814561D01*
X112465000Y-64814561D01*
X112465000Y-65385439D01*
X112683466Y-65912862D01*
X113087138Y-66316534D01*
X113614561Y-66535000D01*
X114185439Y-66535000D01*
X114239861Y-66512458D01*
X114235423Y-66515423D01*
X113918260Y-66990091D01*
X113806887Y-67550000D01*
X113918260Y-68109909D01*
X114235423Y-68584577D01*
X114710091Y-68901740D01*
X115128667Y-68985000D01*
X115411333Y-68985000D01*
X115829909Y-68901740D01*
X116304577Y-68584577D01*
X116621740Y-68109909D01*
X116733113Y-67550000D01*
X116686282Y-67314561D01*
X117465000Y-67314561D01*
X117465000Y-67885439D01*
X117683466Y-68412862D01*
X118087138Y-68816534D01*
X118614561Y-69035000D01*
X119185439Y-69035000D01*
X119712862Y-68816534D01*
X120116534Y-68412862D01*
X120335000Y-67885439D01*
X120335000Y-67314561D01*
X120116534Y-66787138D01*
X120029396Y-66700000D01*
X153142560Y-66700000D01*
X153142560Y-68400000D01*
X153191843Y-68647765D01*
X153332191Y-68857809D01*
X153542235Y-68998157D01*
X153790000Y-69047440D01*
X155490000Y-69047440D01*
X155737765Y-68998157D01*
X155947809Y-68857809D01*
X156088157Y-68647765D01*
X156108739Y-68544292D01*
X156413076Y-68821645D01*
X156823110Y-68991476D01*
X157053000Y-68870155D01*
X157053000Y-67677000D01*
X157033000Y-67677000D01*
X157033000Y-67423000D01*
X157053000Y-67423000D01*
X157053000Y-66229845D01*
X157307000Y-66229845D01*
X157307000Y-67423000D01*
X158500819Y-67423000D01*
X158621486Y-67193108D01*
X158375183Y-66668642D01*
X157946924Y-66278355D01*
X157536890Y-66108524D01*
X157307000Y-66229845D01*
X157053000Y-66229845D01*
X156823110Y-66108524D01*
X156413076Y-66278355D01*
X156108739Y-66555708D01*
X156088157Y-66452235D01*
X155947809Y-66242191D01*
X155737765Y-66101843D01*
X155490000Y-66052560D01*
X153790000Y-66052560D01*
X153542235Y-66101843D01*
X153332191Y-66242191D01*
X153191843Y-66452235D01*
X153142560Y-66700000D01*
X120029396Y-66700000D01*
X119712862Y-66383466D01*
X119185439Y-66165000D01*
X118614561Y-66165000D01*
X118087138Y-66383466D01*
X117683466Y-66787138D01*
X117465000Y-67314561D01*
X116686282Y-67314561D01*
X116621740Y-66990091D01*
X116304577Y-66515423D01*
X115829909Y-66198260D01*
X115411333Y-66115000D01*
X115128667Y-66115000D01*
X114861192Y-66168204D01*
X115116534Y-65912862D01*
X115335000Y-65385439D01*
X115335000Y-64814561D01*
X115116534Y-64287138D01*
X114712862Y-63883466D01*
X114647701Y-63856475D01*
X114654005Y-63853864D01*
X114728139Y-63607745D01*
X113900000Y-62779605D01*
X113071861Y-63607745D01*
X113145995Y-63853864D01*
X113152746Y-63856290D01*
X113087138Y-63883466D01*
X112683466Y-64287138D01*
X112465000Y-64814561D01*
X101127000Y-64814561D01*
X101127000Y-62383223D01*
X112453035Y-62383223D01*
X112480222Y-62953454D01*
X112646136Y-63354005D01*
X112892255Y-63428139D01*
X113720395Y-62600000D01*
X114079605Y-62600000D01*
X114907745Y-63428139D01*
X115153864Y-63354005D01*
X115346965Y-62816777D01*
X115319778Y-62246546D01*
X115294596Y-62185750D01*
X115615000Y-62185750D01*
X115615000Y-62876310D01*
X115711673Y-63109699D01*
X115890302Y-63288327D01*
X116123691Y-63385000D01*
X116814250Y-63385000D01*
X116973000Y-63226250D01*
X116973000Y-62027000D01*
X117227000Y-62027000D01*
X117227000Y-63226250D01*
X117385750Y-63385000D01*
X118076309Y-63385000D01*
X118309698Y-63288327D01*
X118488327Y-63109699D01*
X118585000Y-62876310D01*
X118585000Y-62185750D01*
X118426250Y-62027000D01*
X117227000Y-62027000D01*
X116973000Y-62027000D01*
X115773750Y-62027000D01*
X115615000Y-62185750D01*
X115294596Y-62185750D01*
X115153864Y-61845995D01*
X114907745Y-61771861D01*
X114079605Y-62600000D01*
X113720395Y-62600000D01*
X112892255Y-61771861D01*
X112646136Y-61845995D01*
X112453035Y-62383223D01*
X101127000Y-62383223D01*
X101127000Y-61592255D01*
X113071861Y-61592255D01*
X113900000Y-62420395D01*
X114728139Y-61592255D01*
X114654005Y-61346136D01*
X114116777Y-61153035D01*
X113546546Y-61180222D01*
X113145995Y-61346136D01*
X113071861Y-61592255D01*
X101127000Y-61592255D01*
X101127000Y-60923690D01*
X115615000Y-60923690D01*
X115615000Y-61614250D01*
X115773750Y-61773000D01*
X116973000Y-61773000D01*
X116973000Y-60573750D01*
X117227000Y-60573750D01*
X117227000Y-61773000D01*
X118426250Y-61773000D01*
X118579250Y-61620000D01*
X152507560Y-61620000D01*
X152507560Y-63320000D01*
X152556843Y-63567765D01*
X152697191Y-63777809D01*
X152907235Y-63918157D01*
X153155000Y-63967440D01*
X154855000Y-63967440D01*
X155102765Y-63918157D01*
X155312809Y-63777809D01*
X155453157Y-63567765D01*
X155462184Y-63522381D01*
X155474375Y-63540625D01*
X155965582Y-63868839D01*
X156398744Y-63955000D01*
X156691256Y-63955000D01*
X157124418Y-63868839D01*
X157615625Y-63540625D01*
X157943839Y-63049418D01*
X158059092Y-62470000D01*
X157943839Y-61890582D01*
X157615625Y-61399375D01*
X157124418Y-61071161D01*
X156691256Y-60985000D01*
X156398744Y-60985000D01*
X155965582Y-61071161D01*
X155474375Y-61399375D01*
X155462184Y-61417619D01*
X155453157Y-61372235D01*
X155312809Y-61162191D01*
X155102765Y-61021843D01*
X154855000Y-60972560D01*
X153155000Y-60972560D01*
X152907235Y-61021843D01*
X152697191Y-61162191D01*
X152556843Y-61372235D01*
X152507560Y-61620000D01*
X118579250Y-61620000D01*
X118585000Y-61614250D01*
X118585000Y-60923690D01*
X118488327Y-60690301D01*
X118309698Y-60511673D01*
X118076309Y-60415000D01*
X117385750Y-60415000D01*
X117227000Y-60573750D01*
X116973000Y-60573750D01*
X116814250Y-60415000D01*
X116123691Y-60415000D01*
X115890302Y-60511673D01*
X115711673Y-60690301D01*
X115615000Y-60923690D01*
X101127000Y-60923690D01*
X101127000Y-60127000D01*
X177873000Y-60127000D01*
X177873000Y-91873000D01*
M02*
